%YAML 1.1
%TAG !u! tag:unity3d.com,2011:
--- !u!54 &3835500641250986651
Rigidbody:
  m_ObjectHideFlags: 0
  m_CorrespondingSourceObject: {fileID: 0}
  m_PrefabInstance: {fileID: 0}
  m_PrefabAsset: {fileID: 0}
  m_GameObject: {fileID: 1332054831002126596}
  serializedVersion: 2
  m_Mass: 1
  m_Drag: 0
  m_AngularDrag: 0.05
  m_UseGravity: 1
  m_IsKinematic: 0
  m_Interpolate: 0
  m_Constraints: 0
  m_CollisionDetection: 0
--- !u!65 &1035100138023659188
BoxCollider:
  m_ObjectHideFlags: 0
  m_CorrespondingSourceObject: {fileID: 0}
  m_PrefabInstance: {fileID: 0}
  m_PrefabAsset: {fileID: 0}
  m_GameObject: {fileID: 1332054831002126596}
  m_Material: {fileID: 0}
  m_IsTrigger: 0
  m_Enabled: 1
  serializedVersion: 2
  m_Size: {x: 2.11, y: 1.21, z: 1}
  m_Center: {x: 0, y: 0.66, z: 0}
--- !u!95 &3595283882713886966
Animator:
  serializedVersion: 3
  m_ObjectHideFlags: 0
  m_CorrespondingSourceObject: {fileID: 0}
  m_PrefabInstance: {fileID: 0}
  m_PrefabAsset: {fileID: 0}
  m_GameObject: {fileID: 1332054831002126596}
  m_Enabled: 1
  m_Avatar: {fileID: 0}
  m_Controller: {fileID: 22100000, guid: 916d02211b1a0ec4aac008856b287cc2, type: 2}
  m_CullingMode: 0
  m_UpdateMode: 0
  m_ApplyRootMotion: 0
  m_LinearVelocityBlending: 0
  m_WarningMessage: 
  m_HasTransformHierarchy: 1
  m_AllowConstantClipSamplingOptimization: 1
  m_KeepAnimatorControllerStateOnDisable: 0
--- !u!114 &2155609336470842320
MonoBehaviour:
  m_ObjectHideFlags: 0
  m_CorrespondingSourceObject: {fileID: 0}
  m_PrefabInstance: {fileID: 0}
  m_PrefabAsset: {fileID: 0}
  m_GameObject: {fileID: 1332054831002126596}
  m_Enabled: 1
  m_EditorHideFlags: 0
  m_Script: {fileID: 11500000, guid: 145370709f51c4747a5f6485c2907659, type: 3}
  m_Name: 
  m_EditorClassIdentifier: 
  masterData: {fileID: 11400000, guid: 93c31c206d198a941a94e81b5ef76330, type: 2}
  animTrigger: 0
--- !u!1001 &7015910964809093133
PrefabInstance:
  m_ObjectHideFlags: 0
  serializedVersion: 2
  m_Modification:
    m_TransformParent: {fileID: 0}
    m_Modifications:
    - target: {fileID: -927199367670048503, guid: d8440c7b36d8b9c4fad888892dcc996e,
        type: 3}
      propertyPath: m_Name
      value: Shokeke
      objectReference: {fileID: 0}
    - target: {fileID: -4216859302048453862, guid: d8440c7b36d8b9c4fad888892dcc996e,
        type: 3}
      propertyPath: m_LocalPosition.x
      value: -12.4
      objectReference: {fileID: 0}
    - target: {fileID: -4216859302048453862, guid: d8440c7b36d8b9c4fad888892dcc996e,
        type: 3}
      propertyPath: m_LocalPosition.y
      value: 4.1057024
      objectReference: {fileID: 0}
    - target: {fileID: -4216859302048453862, guid: d8440c7b36d8b9c4fad888892dcc996e,
        type: 3}
      propertyPath: m_LocalPosition.z
      value: 70.1
      objectReference: {fileID: 0}
    - target: {fileID: -4216859302048453862, guid: d8440c7b36d8b9c4fad888892dcc996e,
        type: 3}
      propertyPath: m_LocalRotation.x
      value: 0
      objectReference: {fileID: 0}
    - target: {fileID: -4216859302048453862, guid: d8440c7b36d8b9c4fad888892dcc996e,
        type: 3}
      propertyPath: m_LocalRotation.y
      value: 0.98696417
      objectReference: {fileID: 0}
    - target: {fileID: -4216859302048453862, guid: d8440c7b36d8b9c4fad888892dcc996e,
        type: 3}
      propertyPath: m_LocalRotation.z
      value: 0
      objectReference: {fileID: 0}
    - target: {fileID: -4216859302048453862, guid: d8440c7b36d8b9c4fad888892dcc996e,
        type: 3}
      propertyPath: m_LocalRotation.w
      value: 0.16094008
      objectReference: {fileID: 0}
    - target: {fileID: -4216859302048453862, guid: d8440c7b36d8b9c4fad888892dcc996e,
        type: 3}
      propertyPath: m_RootOrder
      value: 0
      objectReference: {fileID: 0}
    - target: {fileID: -4216859302048453862, guid: d8440c7b36d8b9c4fad888892dcc996e,
        type: 3}
      propertyPath: m_LocalEulerAnglesHint.x
      value: 0
      objectReference: {fileID: 0}
    - target: {fileID: -4216859302048453862, guid: d8440c7b36d8b9c4fad888892dcc996e,
        type: 3}
      propertyPath: m_LocalEulerAnglesHint.y
      value: 180
      objectReference: {fileID: 0}
    - target: {fileID: -4216859302048453862, guid: d8440c7b36d8b9c4fad888892dcc996e,
        type: 3}
      propertyPath: m_LocalEulerAnglesHint.z
      value: 0
      objectReference: {fileID: 0}
    - target: {fileID: -4216859302048453862, guid: d8440c7b36d8b9c4fad888892dcc996e,
        type: 3}
      propertyPath: m_LocalScale.x
      value: 1.5
      objectReference: {fileID: 0}
    - target: {fileID: -4216859302048453862, guid: d8440c7b36d8b9c4fad888892dcc996e,
        type: 3}
      propertyPath: m_LocalScale.y
      value: 1.5
      objectReference: {fileID: 0}
    - target: {fileID: -4216859302048453862, guid: d8440c7b36d8b9c4fad888892dcc996e,
        type: 3}
      propertyPath: m_LocalScale.z
      value: 1.5
      objectReference: {fileID: 0}
    - target: {fileID: -1410801626489061084, guid: d8440c7b36d8b9c4fad888892dcc996e,
        type: 3}
      propertyPath: m_LocalEulerAnglesHint.y
      value: 90
      objectReference: {fileID: 0}
    - target: {fileID: -1410801626489061084, guid: d8440c7b36d8b9c4fad888892dcc996e,
        type: 3}
      propertyPath: m_LocalEulerAnglesHint.z
      value: -90
      objectReference: {fileID: 0}
    - target: {fileID: -455466700266387441, guid: d8440c7b36d8b9c4fad888892dcc996e,
        type: 3}
      propertyPath: m_LocalEulerAnglesHint.x
      value: -90
      objectReference: {fileID: 0}
    - target: {fileID: -455466700266387441, guid: d8440c7b36d8b9c4fad888892dcc996e,
        type: 3}
      propertyPath: m_LocalEulerAnglesHint.y
      value: 90
      objectReference: {fileID: 0}
    - target: {fileID: 4664601338400456806, guid: d8440c7b36d8b9c4fad888892dcc996e,
        type: 3}
      propertyPath: m_LocalEulerAnglesHint.x
      value: 90
      objectReference: {fileID: 0}
    - target: {fileID: 4664601338400456806, guid: d8440c7b36d8b9c4fad888892dcc996e,
        type: 3}
      propertyPath: m_LocalEulerAnglesHint.y
      value: -150.64223
      objectReference: {fileID: 0}
    - target: {fileID: -6606533703805011309, guid: d8440c7b36d8b9c4fad888892dcc996e,
        type: 3}
      propertyPath: m_LocalEulerAnglesHint.x
      value: 90
      objectReference: {fileID: 0}
    - target: {fileID: -6606533703805011309, guid: d8440c7b36d8b9c4fad888892dcc996e,
        type: 3}
      propertyPath: m_LocalEulerAnglesHint.y
      value: -90
      objectReference: {fileID: 0}
    - target: {fileID: 88441287361171638, guid: d8440c7b36d8b9c4fad888892dcc996e,
        type: 3}
      propertyPath: m_LocalEulerAnglesHint.x
      value: -90
      objectReference: {fileID: 0}
    - target: {fileID: 88441287361171638, guid: d8440c7b36d8b9c4fad888892dcc996e,
        type: 3}
      propertyPath: m_LocalEulerAnglesHint.y
      value: 150.64223
      objectReference: {fileID: 0}
    m_RemovedComponents: []
  m_SourcePrefab: {fileID: 100100000, guid: d8440c7b36d8b9c4fad888892dcc996e, type: 3}
--- !u!1 &1332054831002126596 stripped
GameObject:
  m_CorrespondingSourceObject: {fileID: -927199367670048503, guid: d8440c7b36d8b9c4fad888892dcc996e,
    type: 3}
  m_PrefabInstance: {fileID: 7015910964809093133}
  m_PrefabAsset: {fileID: 0}
