%YAML 1.1
%TAG !u! tag:unity3d.com,2011:
--- !u!1 &350312213533868287
GameObject:
  m_ObjectHideFlags: 0
  m_CorrespondingSourceObject: {fileID: 0}
  m_PrefabInstance: {fileID: 0}
  m_PrefabAsset: {fileID: 0}
  serializedVersion: 6
  m_Component:
  - component: {fileID: 6487253306406449491}
  - component: {fileID: 4879754981426137}
  - component: {fileID: 2229798419908731005}
  m_Layer: 0
  m_Name: ScoreManager
  m_TagString: Untagged
  m_Icon: {fileID: 0}
  m_NavMeshLayer: 0
  m_StaticEditorFlags: 0
  m_IsActive: 1
--- !u!4 &6487253306406449491
Transform:
  m_ObjectHideFlags: 0
  m_CorrespondingSourceObject: {fileID: 0}
  m_PrefabInstance: {fileID: 0}
  m_PrefabAsset: {fileID: 0}
  m_GameObject: {fileID: 350312213533868287}
  m_LocalRotation: {x: 0, y: 0, z: 0, w: 1}
  m_LocalPosition: {x: 0, y: 0, z: 0}
  m_LocalScale: {x: 1, y: 1, z: 1}
  m_Children: []
  m_Father: {fileID: 0}
  m_RootOrder: 0
  m_LocalEulerAnglesHint: {x: 0, y: 0, z: 0}
--- !u!114 &4879754981426137
MonoBehaviour:
  m_ObjectHideFlags: 0
  m_CorrespondingSourceObject: {fileID: 0}
  m_PrefabInstance: {fileID: 0}
  m_PrefabAsset: {fileID: 0}
  m_GameObject: {fileID: 350312213533868287}
  m_Enabled: 1
  m_EditorHideFlags: 0
  m_Script: {fileID: 11500000, guid: d8162a6084c3f504f87674e47532881b, type: 3}
  m_Name: 
  m_EditorClassIdentifier: 
  rank: 4
  baseAddScore: 10
  goodMagnification: 1
  perfectMagnification: 1.5
  goodUnderLine: 1.9
  goodUpperLine: 1.3
  perfectUnderLine: 1.7
  perfectUpperLine: 1.5
  currentScoreText: {fileID: 0}
  totalScoreText: {fileID: 0}
  curremtComboText: {fileID: 0}
  maxComboText: {fileID: 0}
  successRateText: {fileID: 0}
  rankText: {fileID: 0}
  thankyouText: {fileID: 0}
  resultCanvas: {fileID: 0}
  scoreCanvas: {fileID: 0}
  comboCanvas: {fileID: 0}
  redTextColor: {r: 1, g: 0.49803922, b: 0, a: 0}
  blueTextColor: {r: 0, g: 0.49803922, b: 1, a: 0}
--- !u!114 &2229798419908731005
MonoBehaviour:
  m_ObjectHideFlags: 0
  m_CorrespondingSourceObject: {fileID: 0}
  m_PrefabInstance: {fileID: 0}
  m_PrefabAsset: {fileID: 0}
  m_GameObject: {fileID: 350312213533868287}
  m_Enabled: 1
  m_EditorHideFlags: 0
  m_Script: {fileID: 11500000, guid: 00de5670a35ba15458d56781acc8c5b5, type: 3}
  m_Name: 
  m_EditorClassIdentifier: 
  comboMagnification: 1
