%YAML 1.1
%TAG !u! tag:unity3d.com,2011:
--- !u!114 &478795777
MonoBehaviour:
  m_ObjectHideFlags: 0
  m_CorrespondingSourceObject: {fileID: 0}
  m_PrefabInstance: {fileID: 0}
  m_PrefabAsset: {fileID: 0}
  m_GameObject: {fileID: 7068987694492177464}
  m_Enabled: 1
  m_EditorHideFlags: 0
  m_Script: {fileID: 11500000, guid: 569fafdc8f49b104783c48f34fb644c7, type: 3}
  m_Name: 
  m_EditorClassIdentifier: 
  spawnEffect: {fileID: 1018146701148419068, guid: b3d243e51c741214ca336304063fec93,
    type: 3}
--- !u!1001 &6300515177138251267
PrefabInstance:
  m_ObjectHideFlags: 0
  serializedVersion: 2
  m_Modification:
    m_TransformParent: {fileID: 0}
    m_Modifications:
    - target: {fileID: 3852262094168142395, guid: bbd2b0aab38333047b9e1171a8e6d268,
        type: 3}
      propertyPath: m_Name
      value: l_audience_dangoro Variant
      objectReference: {fileID: 0}
    - target: {fileID: 229298949613076520, guid: bbd2b0aab38333047b9e1171a8e6d268,
        type: 3}
      propertyPath: m_LocalPosition.x
      value: -8.71
      objectReference: {fileID: 0}
    - target: {fileID: 229298949613076520, guid: bbd2b0aab38333047b9e1171a8e6d268,
        type: 3}
      propertyPath: m_LocalPosition.y
      value: -0.009127855
      objectReference: {fileID: 0}
    - target: {fileID: 229298949613076520, guid: bbd2b0aab38333047b9e1171a8e6d268,
        type: 3}
      propertyPath: m_LocalPosition.z
      value: 46
      objectReference: {fileID: 0}
    - target: {fileID: 229298949613076520, guid: bbd2b0aab38333047b9e1171a8e6d268,
        type: 3}
      propertyPath: m_LocalRotation.x
      value: -0
      objectReference: {fileID: 0}
    - target: {fileID: 229298949613076520, guid: bbd2b0aab38333047b9e1171a8e6d268,
        type: 3}
      propertyPath: m_LocalRotation.y
      value: 0.9238794
      objectReference: {fileID: 0}
    - target: {fileID: 229298949613076520, guid: bbd2b0aab38333047b9e1171a8e6d268,
        type: 3}
      propertyPath: m_LocalRotation.z
      value: -0
      objectReference: {fileID: 0}
    - target: {fileID: 229298949613076520, guid: bbd2b0aab38333047b9e1171a8e6d268,
        type: 3}
      propertyPath: m_LocalRotation.w
      value: 0.38268375
      objectReference: {fileID: 0}
    - target: {fileID: 229298949613076520, guid: bbd2b0aab38333047b9e1171a8e6d268,
        type: 3}
      propertyPath: m_RootOrder
      value: 0
      objectReference: {fileID: 0}
    - target: {fileID: 229298949613076520, guid: bbd2b0aab38333047b9e1171a8e6d268,
        type: 3}
      propertyPath: m_LocalEulerAnglesHint.x
      value: 0
      objectReference: {fileID: 0}
    - target: {fileID: 229298949613076520, guid: bbd2b0aab38333047b9e1171a8e6d268,
        type: 3}
      propertyPath: m_LocalEulerAnglesHint.y
      value: 135
      objectReference: {fileID: 0}
    - target: {fileID: 229298949613076520, guid: bbd2b0aab38333047b9e1171a8e6d268,
        type: 3}
      propertyPath: m_LocalEulerAnglesHint.z
      value: 0
      objectReference: {fileID: 0}
    - target: {fileID: -2383797274835655459, guid: bbd2b0aab38333047b9e1171a8e6d268,
        type: 3}
      propertyPath: m_UseGravity
      value: 0
      objectReference: {fileID: 0}
    - target: {fileID: -2383797274835655459, guid: bbd2b0aab38333047b9e1171a8e6d268,
        type: 3}
      propertyPath: m_IsKinematic
      value: 1
      objectReference: {fileID: 0}
    m_RemovedComponents:
    - {fileID: 1798958215127275235, guid: bbd2b0aab38333047b9e1171a8e6d268, type: 3}
  m_SourcePrefab: {fileID: 100100000, guid: bbd2b0aab38333047b9e1171a8e6d268, type: 3}
--- !u!1 &7068987694492177464 stripped
GameObject:
  m_CorrespondingSourceObject: {fileID: 3852262094168142395, guid: bbd2b0aab38333047b9e1171a8e6d268,
    type: 3}
  m_PrefabInstance: {fileID: 6300515177138251267}
  m_PrefabAsset: {fileID: 0}
