%YAML 1.1
%TAG !u! tag:unity3d.com,2011:
--- !u!1001 &2736058162503165867
PrefabInstance:
  m_ObjectHideFlags: 0
  serializedVersion: 2
  m_Modification:
    m_TransformParent: {fileID: 0}
    m_Modifications:
    - target: {fileID: -927199367670048503, guid: ede42ea2f0da5c44392fec5a13a4ff12,
        type: 3}
      propertyPath: m_Name
      value: RedBracelet
      objectReference: {fileID: 0}
    - target: {fileID: -4216859302048453862, guid: ede42ea2f0da5c44392fec5a13a4ff12,
        type: 3}
      propertyPath: m_LocalPosition.x
      value: -0.15
      objectReference: {fileID: 0}
    - target: {fileID: -4216859302048453862, guid: ede42ea2f0da5c44392fec5a13a4ff12,
        type: 3}
      propertyPath: m_LocalPosition.y
      value: 1.6
      objectReference: {fileID: 0}
    - target: {fileID: -4216859302048453862, guid: ede42ea2f0da5c44392fec5a13a4ff12,
        type: 3}
      propertyPath: m_LocalPosition.z
      value: -2.1
      objectReference: {fileID: 0}
    - target: {fileID: -4216859302048453862, guid: ede42ea2f0da5c44392fec5a13a4ff12,
        type: 3}
      propertyPath: m_LocalRotation.x
      value: -0.7071068
      objectReference: {fileID: 0}
    - target: {fileID: -4216859302048453862, guid: ede42ea2f0da5c44392fec5a13a4ff12,
        type: 3}
      propertyPath: m_LocalRotation.y
      value: 0
      objectReference: {fileID: 0}
    - target: {fileID: -4216859302048453862, guid: ede42ea2f0da5c44392fec5a13a4ff12,
        type: 3}
      propertyPath: m_LocalRotation.z
      value: 0
      objectReference: {fileID: 0}
    - target: {fileID: -4216859302048453862, guid: ede42ea2f0da5c44392fec5a13a4ff12,
        type: 3}
      propertyPath: m_LocalRotation.w
      value: 0.7071068
      objectReference: {fileID: 0}
    - target: {fileID: -4216859302048453862, guid: ede42ea2f0da5c44392fec5a13a4ff12,
        type: 3}
      propertyPath: m_RootOrder
      value: 0
      objectReference: {fileID: 0}
    - target: {fileID: -4216859302048453862, guid: ede42ea2f0da5c44392fec5a13a4ff12,
        type: 3}
      propertyPath: m_LocalEulerAnglesHint.x
      value: -90
      objectReference: {fileID: 0}
    - target: {fileID: -4216859302048453862, guid: ede42ea2f0da5c44392fec5a13a4ff12,
        type: 3}
      propertyPath: m_LocalEulerAnglesHint.y
      value: 0
      objectReference: {fileID: 0}
    - target: {fileID: -4216859302048453862, guid: ede42ea2f0da5c44392fec5a13a4ff12,
        type: 3}
      propertyPath: m_LocalEulerAnglesHint.z
      value: 0
      objectReference: {fileID: 0}
    - target: {fileID: -4216859302048453862, guid: ede42ea2f0da5c44392fec5a13a4ff12,
        type: 3}
      propertyPath: m_LocalScale.x
      value: 1
      objectReference: {fileID: 0}
    - target: {fileID: -4216859302048453862, guid: ede42ea2f0da5c44392fec5a13a4ff12,
        type: 3}
      propertyPath: m_LocalScale.y
      value: 1
      objectReference: {fileID: 0}
    - target: {fileID: 5807327176982749694, guid: ede42ea2f0da5c44392fec5a13a4ff12,
        type: 3}
      propertyPath: m_Materials.Array.data[0]
      value: 
      objectReference: {fileID: 2100000, guid: 3fc9b600464e52041b5debae361c8120, type: 2}
    - target: {fileID: 5035478395904900763, guid: ede42ea2f0da5c44392fec5a13a4ff12,
        type: 3}
      propertyPath: m_Materials.Array.data[0]
      value: 
      objectReference: {fileID: 2100000, guid: 3fc9b600464e52041b5debae361c8120, type: 2}
    m_RemovedComponents: []
  m_SourcePrefab: {fileID: 100100000, guid: ede42ea2f0da5c44392fec5a13a4ff12, type: 3}
