%YAML 1.1
%TAG !u! tag:unity3d.com,2011:
--- !u!114 &11400000
MonoBehaviour:
  m_ObjectHideFlags: 0
  m_CorrespondingSourceObject: {fileID: 0}
  m_PrefabInstance: {fileID: 0}
  m_PrefabAsset: {fileID: 0}
  m_GameObject: {fileID: 0}
  m_Enabled: 1
  m_EditorHideFlags: 0
  m_Script: {fileID: 11500000, guid: 4d192c295c4e5a94a846db677fa7c986, type: 3}
  m_Name: BGMList
  m_EditorClassIdentifier: 
  bgmDatas:
  - bgm: 0
    audioClip: {fileID: 8300000, guid: 723d199bf01a7ce418d7595f6e6dd775, type: 3}
  - bgm: 1
    audioClip: {fileID: 8300000, guid: 9b6eb80b1a70ebd4e9a56a6c6563bac2, type: 3}
