%YAML 1.1
%TAG !u! tag:unity3d.com,2011:
--- !u!1 &4820868010999226988
GameObject:
  m_ObjectHideFlags: 0
  m_CorrespondingSourceObject: {fileID: 0}
  m_PrefabInstance: {fileID: 0}
  m_PrefabAsset: {fileID: 0}
  serializedVersion: 6
  m_Component:
  - component: {fileID: 3319050365350529050}
  m_Layer: 0
  m_Name: BraceletPosition
  m_TagString: Untagged
  m_Icon: {fileID: 0}
  m_NavMeshLayer: 0
  m_StaticEditorFlags: 0
  m_IsActive: 1
--- !u!4 &3319050365350529050
Transform:
  m_ObjectHideFlags: 0
  m_CorrespondingSourceObject: {fileID: 0}
  m_PrefabInstance: {fileID: 0}
  m_PrefabAsset: {fileID: 0}
  m_GameObject: {fileID: 4820868010999226988}
  m_LocalRotation: {x: 0, y: -0, z: -0.7071068, w: 0.7071067}
  m_LocalPosition: {x: -0.025657693, y: 0.033532444, z: -0.0011174232}
  m_LocalScale: {x: 0.9999999, y: 0.9999999, z: 1}
  m_Children: []
  m_Father: {fileID: 7922300059204697502}
  m_RootOrder: 4
  m_LocalEulerAnglesHint: {x: 0, y: 0, z: 0}
--- !u!1001 &7922300059204839774
PrefabInstance:
  m_ObjectHideFlags: 0
  serializedVersion: 2
  m_Modification:
    m_TransformParent: {fileID: 0}
    m_Modifications:
    - target: {fileID: 143668, guid: e6ba3498ffa1e534b91a07264266e6b8, type: 3}
      propertyPath: m_Name
      value: RedHand
      objectReference: {fileID: 0}
    - target: {fileID: 143668, guid: e6ba3498ffa1e534b91a07264266e6b8, type: 3}
      propertyPath: m_Layer
      value: 14
      objectReference: {fileID: 0}
    - target: {fileID: 143668, guid: e6ba3498ffa1e534b91a07264266e6b8, type: 3}
      propertyPath: m_TagString
      value: LeftHand
      objectReference: {fileID: 0}
    - target: {fileID: 414912, guid: e6ba3498ffa1e534b91a07264266e6b8, type: 3}
      propertyPath: m_LocalPosition.x
      value: 0
      objectReference: {fileID: 0}
    - target: {fileID: 414912, guid: e6ba3498ffa1e534b91a07264266e6b8, type: 3}
      propertyPath: m_LocalPosition.y
      value: 0
      objectReference: {fileID: 0}
    - target: {fileID: 414912, guid: e6ba3498ffa1e534b91a07264266e6b8, type: 3}
      propertyPath: m_LocalPosition.z
      value: 0
      objectReference: {fileID: 0}
    - target: {fileID: 414912, guid: e6ba3498ffa1e534b91a07264266e6b8, type: 3}
      propertyPath: m_LocalRotation.x
      value: -0
      objectReference: {fileID: 0}
    - target: {fileID: 414912, guid: e6ba3498ffa1e534b91a07264266e6b8, type: 3}
      propertyPath: m_LocalRotation.y
      value: -0
      objectReference: {fileID: 0}
    - target: {fileID: 414912, guid: e6ba3498ffa1e534b91a07264266e6b8, type: 3}
      propertyPath: m_LocalRotation.z
      value: 0.7071068
      objectReference: {fileID: 0}
    - target: {fileID: 414912, guid: e6ba3498ffa1e534b91a07264266e6b8, type: 3}
      propertyPath: m_LocalRotation.w
      value: 0.7071067
      objectReference: {fileID: 0}
    - target: {fileID: 414912, guid: e6ba3498ffa1e534b91a07264266e6b8, type: 3}
      propertyPath: m_RootOrder
      value: 0
      objectReference: {fileID: 0}
    - target: {fileID: 414912, guid: e6ba3498ffa1e534b91a07264266e6b8, type: 3}
      propertyPath: m_LocalEulerAnglesHint.x
      value: 0
      objectReference: {fileID: 0}
    - target: {fileID: 414912, guid: e6ba3498ffa1e534b91a07264266e6b8, type: 3}
      propertyPath: m_LocalEulerAnglesHint.y
      value: 0
      objectReference: {fileID: 0}
    - target: {fileID: 414912, guid: e6ba3498ffa1e534b91a07264266e6b8, type: 3}
      propertyPath: m_LocalEulerAnglesHint.z
      value: 90
      objectReference: {fileID: 0}
    - target: {fileID: 182712, guid: e6ba3498ffa1e534b91a07264266e6b8, type: 3}
      propertyPath: m_Layer
      value: 14
      objectReference: {fileID: 0}
    - target: {fileID: 184596, guid: e6ba3498ffa1e534b91a07264266e6b8, type: 3}
      propertyPath: m_Layer
      value: 14
      objectReference: {fileID: 0}
    - target: {fileID: 135332, guid: e6ba3498ffa1e534b91a07264266e6b8, type: 3}
      propertyPath: m_Layer
      value: 14
      objectReference: {fileID: 0}
    - target: {fileID: 1367450344401422, guid: e6ba3498ffa1e534b91a07264266e6b8, type: 3}
      propertyPath: m_Layer
      value: 14
      objectReference: {fileID: 0}
    - target: {fileID: 13646154, guid: e6ba3498ffa1e534b91a07264266e6b8, type: 3}
      propertyPath: m_Enabled
      value: 0
      objectReference: {fileID: 0}
    - target: {fileID: 13646584, guid: e6ba3498ffa1e534b91a07264266e6b8, type: 3}
      propertyPath: m_Enabled
      value: 0
      objectReference: {fileID: 0}
    - target: {fileID: 105812, guid: e6ba3498ffa1e534b91a07264266e6b8, type: 3}
      propertyPath: m_Layer
      value: 14
      objectReference: {fileID: 0}
    - target: {fileID: 145936, guid: e6ba3498ffa1e534b91a07264266e6b8, type: 3}
      propertyPath: m_Layer
      value: 14
      objectReference: {fileID: 0}
    - target: {fileID: 133112, guid: e6ba3498ffa1e534b91a07264266e6b8, type: 3}
      propertyPath: m_Layer
      value: 14
      objectReference: {fileID: 0}
    - target: {fileID: 1044511876607874, guid: e6ba3498ffa1e534b91a07264266e6b8, type: 3}
      propertyPath: m_Layer
      value: 14
      objectReference: {fileID: 0}
    - target: {fileID: 1499970328959474, guid: e6ba3498ffa1e534b91a07264266e6b8, type: 3}
      propertyPath: m_Layer
      value: 14
      objectReference: {fileID: 0}
    - target: {fileID: 119668, guid: e6ba3498ffa1e534b91a07264266e6b8, type: 3}
      propertyPath: m_Layer
      value: 14
      objectReference: {fileID: 0}
    - target: {fileID: 177968, guid: e6ba3498ffa1e534b91a07264266e6b8, type: 3}
      propertyPath: m_Layer
      value: 14
      objectReference: {fileID: 0}
    - target: {fileID: 1195634265440926, guid: e6ba3498ffa1e534b91a07264266e6b8, type: 3}
      propertyPath: m_Layer
      value: 14
      objectReference: {fileID: 0}
    - target: {fileID: 1720038475629598, guid: e6ba3498ffa1e534b91a07264266e6b8, type: 3}
      propertyPath: m_Layer
      value: 14
      objectReference: {fileID: 0}
    - target: {fileID: 125416, guid: e6ba3498ffa1e534b91a07264266e6b8, type: 3}
      propertyPath: m_Layer
      value: 14
      objectReference: {fileID: 0}
    - target: {fileID: 123874, guid: e6ba3498ffa1e534b91a07264266e6b8, type: 3}
      propertyPath: m_Layer
      value: 14
      objectReference: {fileID: 0}
    - target: {fileID: 124146, guid: e6ba3498ffa1e534b91a07264266e6b8, type: 3}
      propertyPath: m_Layer
      value: 14
      objectReference: {fileID: 0}
    - target: {fileID: 116716, guid: e6ba3498ffa1e534b91a07264266e6b8, type: 3}
      propertyPath: m_Layer
      value: 14
      objectReference: {fileID: 0}
    - target: {fileID: 106534, guid: e6ba3498ffa1e534b91a07264266e6b8, type: 3}
      propertyPath: m_Layer
      value: 14
      objectReference: {fileID: 0}
    - target: {fileID: 183196, guid: e6ba3498ffa1e534b91a07264266e6b8, type: 3}
      propertyPath: m_Layer
      value: 14
      objectReference: {fileID: 0}
    - target: {fileID: 158962, guid: e6ba3498ffa1e534b91a07264266e6b8, type: 3}
      propertyPath: m_Layer
      value: 14
      objectReference: {fileID: 0}
    - target: {fileID: 156170, guid: e6ba3498ffa1e534b91a07264266e6b8, type: 3}
      propertyPath: m_Layer
      value: 14
      objectReference: {fileID: 0}
    - target: {fileID: 157044, guid: e6ba3498ffa1e534b91a07264266e6b8, type: 3}
      propertyPath: m_Layer
      value: 14
      objectReference: {fileID: 0}
    - target: {fileID: 161638, guid: e6ba3498ffa1e534b91a07264266e6b8, type: 3}
      propertyPath: m_Layer
      value: 14
      objectReference: {fileID: 0}
    - target: {fileID: 153746, guid: e6ba3498ffa1e534b91a07264266e6b8, type: 3}
      propertyPath: m_Layer
      value: 14
      objectReference: {fileID: 0}
    - target: {fileID: 151706, guid: e6ba3498ffa1e534b91a07264266e6b8, type: 3}
      propertyPath: m_Layer
      value: 14
      objectReference: {fileID: 0}
    - target: {fileID: 132044, guid: e6ba3498ffa1e534b91a07264266e6b8, type: 3}
      propertyPath: m_Layer
      value: 14
      objectReference: {fileID: 0}
    - target: {fileID: 137228, guid: e6ba3498ffa1e534b91a07264266e6b8, type: 3}
      propertyPath: m_Layer
      value: 14
      objectReference: {fileID: 0}
    - target: {fileID: 135682, guid: e6ba3498ffa1e534b91a07264266e6b8, type: 3}
      propertyPath: m_Layer
      value: 14
      objectReference: {fileID: 0}
    - target: {fileID: 1049301172538154, guid: e6ba3498ffa1e534b91a07264266e6b8, type: 3}
      propertyPath: m_Layer
      value: 14
      objectReference: {fileID: 0}
    - target: {fileID: 1040324774911890, guid: e6ba3498ffa1e534b91a07264266e6b8, type: 3}
      propertyPath: m_Layer
      value: 14
      objectReference: {fileID: 0}
    - target: {fileID: 1144630752229044, guid: e6ba3498ffa1e534b91a07264266e6b8, type: 3}
      propertyPath: m_Layer
      value: 14
      objectReference: {fileID: 0}
    - target: {fileID: 1978776275279852, guid: e6ba3498ffa1e534b91a07264266e6b8, type: 3}
      propertyPath: m_Layer
      value: 14
      objectReference: {fileID: 0}
    - target: {fileID: 1886357241190328, guid: e6ba3498ffa1e534b91a07264266e6b8, type: 3}
      propertyPath: m_Layer
      value: 14
      objectReference: {fileID: 0}
    - target: {fileID: 1902661645902884, guid: e6ba3498ffa1e534b91a07264266e6b8, type: 3}
      propertyPath: m_Layer
      value: 14
      objectReference: {fileID: 0}
    - target: {fileID: 1790928981793508, guid: e6ba3498ffa1e534b91a07264266e6b8, type: 3}
      propertyPath: m_Layer
      value: 14
      objectReference: {fileID: 0}
    - target: {fileID: 109698, guid: e6ba3498ffa1e534b91a07264266e6b8, type: 3}
      propertyPath: m_Layer
      value: 14
      objectReference: {fileID: 0}
    - target: {fileID: 102460, guid: e6ba3498ffa1e534b91a07264266e6b8, type: 3}
      propertyPath: m_Layer
      value: 14
      objectReference: {fileID: 0}
    - target: {fileID: 197980, guid: e6ba3498ffa1e534b91a07264266e6b8, type: 3}
      propertyPath: m_Layer
      value: 14
      objectReference: {fileID: 0}
    - target: {fileID: 184150, guid: e6ba3498ffa1e534b91a07264266e6b8, type: 3}
      propertyPath: m_Layer
      value: 14
      objectReference: {fileID: 0}
    - target: {fileID: 179528, guid: e6ba3498ffa1e534b91a07264266e6b8, type: 3}
      propertyPath: m_Layer
      value: 14
      objectReference: {fileID: 0}
    - target: {fileID: 167058, guid: e6ba3498ffa1e534b91a07264266e6b8, type: 3}
      propertyPath: m_Layer
      value: 14
      objectReference: {fileID: 0}
    - target: {fileID: 151276, guid: e6ba3498ffa1e534b91a07264266e6b8, type: 3}
      propertyPath: m_Layer
      value: 14
      objectReference: {fileID: 0}
    - target: {fileID: 140954, guid: e6ba3498ffa1e534b91a07264266e6b8, type: 3}
      propertyPath: m_Layer
      value: 14
      objectReference: {fileID: 0}
    - target: {fileID: 133656, guid: e6ba3498ffa1e534b91a07264266e6b8, type: 3}
      propertyPath: m_Layer
      value: 14
      objectReference: {fileID: 0}
    - target: {fileID: 136898, guid: e6ba3498ffa1e534b91a07264266e6b8, type: 3}
      propertyPath: m_Layer
      value: 14
      objectReference: {fileID: 0}
    - target: {fileID: 1136778762429032, guid: e6ba3498ffa1e534b91a07264266e6b8, type: 3}
      propertyPath: m_Layer
      value: 14
      objectReference: {fileID: 0}
    - target: {fileID: 1241217666867012, guid: e6ba3498ffa1e534b91a07264266e6b8, type: 3}
      propertyPath: m_Layer
      value: 14
      objectReference: {fileID: 0}
    - target: {fileID: 1869762717922658, guid: e6ba3498ffa1e534b91a07264266e6b8, type: 3}
      propertyPath: m_Layer
      value: 14
      objectReference: {fileID: 0}
    - target: {fileID: 1785673802622888, guid: e6ba3498ffa1e534b91a07264266e6b8, type: 3}
      propertyPath: m_Layer
      value: 14
      objectReference: {fileID: 0}
    - target: {fileID: 1789695473651376, guid: e6ba3498ffa1e534b91a07264266e6b8, type: 3}
      propertyPath: m_Layer
      value: 14
      objectReference: {fileID: 0}
    - target: {fileID: 124434, guid: e6ba3498ffa1e534b91a07264266e6b8, type: 3}
      propertyPath: m_Layer
      value: 14
      objectReference: {fileID: 0}
    - target: {fileID: 121328, guid: e6ba3498ffa1e534b91a07264266e6b8, type: 3}
      propertyPath: m_Layer
      value: 14
      objectReference: {fileID: 0}
    - target: {fileID: 122264, guid: e6ba3498ffa1e534b91a07264266e6b8, type: 3}
      propertyPath: m_Layer
      value: 14
      objectReference: {fileID: 0}
    - target: {fileID: 102778, guid: e6ba3498ffa1e534b91a07264266e6b8, type: 3}
      propertyPath: m_Layer
      value: 14
      objectReference: {fileID: 0}
    - target: {fileID: 199182, guid: e6ba3498ffa1e534b91a07264266e6b8, type: 3}
      propertyPath: m_Layer
      value: 14
      objectReference: {fileID: 0}
    - target: {fileID: 197342, guid: e6ba3498ffa1e534b91a07264266e6b8, type: 3}
      propertyPath: m_Layer
      value: 14
      objectReference: {fileID: 0}
    - target: {fileID: 188138, guid: e6ba3498ffa1e534b91a07264266e6b8, type: 3}
      propertyPath: m_Layer
      value: 14
      objectReference: {fileID: 0}
    - target: {fileID: 173150, guid: e6ba3498ffa1e534b91a07264266e6b8, type: 3}
      propertyPath: m_Layer
      value: 14
      objectReference: {fileID: 0}
    - target: {fileID: 171690, guid: e6ba3498ffa1e534b91a07264266e6b8, type: 3}
      propertyPath: m_Layer
      value: 14
      objectReference: {fileID: 0}
    - target: {fileID: 144252, guid: e6ba3498ffa1e534b91a07264266e6b8, type: 3}
      propertyPath: m_Layer
      value: 14
      objectReference: {fileID: 0}
    - target: {fileID: 1570403011224044, guid: e6ba3498ffa1e534b91a07264266e6b8, type: 3}
      propertyPath: m_Layer
      value: 14
      objectReference: {fileID: 0}
    - target: {fileID: 1625418079770192, guid: e6ba3498ffa1e534b91a07264266e6b8, type: 3}
      propertyPath: m_Layer
      value: 14
      objectReference: {fileID: 0}
    - target: {fileID: 1638537082594802, guid: e6ba3498ffa1e534b91a07264266e6b8, type: 3}
      propertyPath: m_Layer
      value: 14
      objectReference: {fileID: 0}
    - target: {fileID: 1512846156005322, guid: e6ba3498ffa1e534b91a07264266e6b8, type: 3}
      propertyPath: m_Layer
      value: 14
      objectReference: {fileID: 0}
    - target: {fileID: 1165649518032288, guid: e6ba3498ffa1e534b91a07264266e6b8, type: 3}
      propertyPath: m_Layer
      value: 14
      objectReference: {fileID: 0}
    - target: {fileID: 124004, guid: e6ba3498ffa1e534b91a07264266e6b8, type: 3}
      propertyPath: m_Layer
      value: 14
      objectReference: {fileID: 0}
    - target: {fileID: 108060, guid: e6ba3498ffa1e534b91a07264266e6b8, type: 3}
      propertyPath: m_Layer
      value: 14
      objectReference: {fileID: 0}
    - target: {fileID: 114192, guid: e6ba3498ffa1e534b91a07264266e6b8, type: 3}
      propertyPath: m_Layer
      value: 14
      objectReference: {fileID: 0}
    - target: {fileID: 188776, guid: e6ba3498ffa1e534b91a07264266e6b8, type: 3}
      propertyPath: m_Layer
      value: 14
      objectReference: {fileID: 0}
    - target: {fileID: 188504, guid: e6ba3498ffa1e534b91a07264266e6b8, type: 3}
      propertyPath: m_Layer
      value: 14
      objectReference: {fileID: 0}
    - target: {fileID: 187350, guid: e6ba3498ffa1e534b91a07264266e6b8, type: 3}
      propertyPath: m_Layer
      value: 14
      objectReference: {fileID: 0}
    - target: {fileID: 174266, guid: e6ba3498ffa1e534b91a07264266e6b8, type: 3}
      propertyPath: m_Layer
      value: 14
      objectReference: {fileID: 0}
    - target: {fileID: 175808, guid: e6ba3498ffa1e534b91a07264266e6b8, type: 3}
      propertyPath: m_Layer
      value: 14
      objectReference: {fileID: 0}
    - target: {fileID: 167738, guid: e6ba3498ffa1e534b91a07264266e6b8, type: 3}
      propertyPath: m_Layer
      value: 14
      objectReference: {fileID: 0}
    - target: {fileID: 132574, guid: e6ba3498ffa1e534b91a07264266e6b8, type: 3}
      propertyPath: m_Layer
      value: 14
      objectReference: {fileID: 0}
    - target: {fileID: 1104111494593836, guid: e6ba3498ffa1e534b91a07264266e6b8, type: 3}
      propertyPath: m_Layer
      value: 14
      objectReference: {fileID: 0}
    - target: {fileID: 1058838863520182, guid: e6ba3498ffa1e534b91a07264266e6b8, type: 3}
      propertyPath: m_Layer
      value: 14
      objectReference: {fileID: 0}
    - target: {fileID: 1680348989034180, guid: e6ba3498ffa1e534b91a07264266e6b8, type: 3}
      propertyPath: m_Layer
      value: 14
      objectReference: {fileID: 0}
    - target: {fileID: 1366201299165264, guid: e6ba3498ffa1e534b91a07264266e6b8, type: 3}
      propertyPath: m_Layer
      value: 14
      objectReference: {fileID: 0}
    - target: {fileID: 1187670712520774, guid: e6ba3498ffa1e534b91a07264266e6b8, type: 3}
      propertyPath: m_Layer
      value: 14
      objectReference: {fileID: 0}
    - target: {fileID: 104402, guid: e6ba3498ffa1e534b91a07264266e6b8, type: 3}
      propertyPath: m_Layer
      value: 14
      objectReference: {fileID: 0}
    - target: {fileID: 135418, guid: e6ba3498ffa1e534b91a07264266e6b8, type: 3}
      propertyPath: m_Layer
      value: 14
      objectReference: {fileID: 0}
    - target: {fileID: 1682699308315390, guid: e6ba3498ffa1e534b91a07264266e6b8, type: 3}
      propertyPath: m_Layer
      value: 14
      objectReference: {fileID: 0}
    m_RemovedComponents: []
  m_SourcePrefab: {fileID: 100100000, guid: e6ba3498ffa1e534b91a07264266e6b8, type: 3}
--- !u!4 &7922300059204697502 stripped
Transform:
  m_CorrespondingSourceObject: {fileID: 414912, guid: e6ba3498ffa1e534b91a07264266e6b8,
    type: 3}
  m_PrefabInstance: {fileID: 7922300059204839774}
  m_PrefabAsset: {fileID: 0}
