%YAML 1.1
%TAG !u! tag:unity3d.com,2011:
--- !u!54 &7738453741988212699
Rigidbody:
  m_ObjectHideFlags: 0
  m_CorrespondingSourceObject: {fileID: 0}
  m_PrefabInstance: {fileID: 0}
  m_PrefabAsset: {fileID: 0}
  m_GameObject: {fileID: 8822197857022687586}
  serializedVersion: 2
  m_Mass: 1
  m_Drag: 0
  m_AngularDrag: 0.05
  m_UseGravity: 0
  m_IsKinematic: 1
  m_Interpolate: 0
  m_Constraints: 112
  m_CollisionDetection: 0
--- !u!1001 &5700226459714751321
PrefabInstance:
  m_ObjectHideFlags: 0
  serializedVersion: 2
  m_Modification:
    m_TransformParent: {fileID: 0}
    m_Modifications:
    - target: {fileID: 3852262094168142395, guid: bbd2b0aab38333047b9e1171a8e6d268,
        type: 3}
      propertyPath: m_Name
      value: DangoroAttacker
      objectReference: {fileID: 0}
    - target: {fileID: 6363856794198771306, guid: bbd2b0aab38333047b9e1171a8e6d268,
        type: 3}
      propertyPath: m_IsTrigger
      value: 1
      objectReference: {fileID: 0}
    - target: {fileID: 7900617697021029714, guid: bbd2b0aab38333047b9e1171a8e6d268,
        type: 3}
      propertyPath: m_Controller
      value: 
      objectReference: {fileID: 22100000, guid: 12850d8c2a043444a9a9f0f0057bc9c9,
        type: 2}
    - target: {fileID: 7900617697021029714, guid: bbd2b0aab38333047b9e1171a8e6d268,
        type: 3}
      propertyPath: m_Enabled
      value: 1
      objectReference: {fileID: 0}
    - target: {fileID: 229298949613076520, guid: bbd2b0aab38333047b9e1171a8e6d268,
        type: 3}
      propertyPath: m_LocalPosition.x
      value: 0
      objectReference: {fileID: 0}
    - target: {fileID: 229298949613076520, guid: bbd2b0aab38333047b9e1171a8e6d268,
        type: 3}
      propertyPath: m_LocalPosition.y
      value: 0
      objectReference: {fileID: 0}
    - target: {fileID: 229298949613076520, guid: bbd2b0aab38333047b9e1171a8e6d268,
        type: 3}
      propertyPath: m_LocalPosition.z
      value: 0
      objectReference: {fileID: 0}
    - target: {fileID: 229298949613076520, guid: bbd2b0aab38333047b9e1171a8e6d268,
        type: 3}
      propertyPath: m_LocalRotation.x
      value: 0
      objectReference: {fileID: 0}
    - target: {fileID: 229298949613076520, guid: bbd2b0aab38333047b9e1171a8e6d268,
        type: 3}
      propertyPath: m_LocalRotation.y
      value: 0
      objectReference: {fileID: 0}
    - target: {fileID: 229298949613076520, guid: bbd2b0aab38333047b9e1171a8e6d268,
        type: 3}
      propertyPath: m_LocalRotation.z
      value: 0
      objectReference: {fileID: 0}
    - target: {fileID: 229298949613076520, guid: bbd2b0aab38333047b9e1171a8e6d268,
        type: 3}
      propertyPath: m_LocalRotation.w
      value: 1
      objectReference: {fileID: 0}
    - target: {fileID: 229298949613076520, guid: bbd2b0aab38333047b9e1171a8e6d268,
        type: 3}
      propertyPath: m_RootOrder
      value: 0
      objectReference: {fileID: 0}
    - target: {fileID: 229298949613076520, guid: bbd2b0aab38333047b9e1171a8e6d268,
        type: 3}
      propertyPath: m_LocalEulerAnglesHint.x
      value: 0
      objectReference: {fileID: 0}
    - target: {fileID: 229298949613076520, guid: bbd2b0aab38333047b9e1171a8e6d268,
        type: 3}
      propertyPath: m_LocalEulerAnglesHint.y
      value: 0
      objectReference: {fileID: 0}
    - target: {fileID: 229298949613076520, guid: bbd2b0aab38333047b9e1171a8e6d268,
        type: 3}
      propertyPath: m_LocalEulerAnglesHint.z
      value: 0
      objectReference: {fileID: 0}
    m_RemovedComponents: []
  m_SourcePrefab: {fileID: 100100000, guid: bbd2b0aab38333047b9e1171a8e6d268, type: 3}
--- !u!1 &8822197857022687586 stripped
GameObject:
  m_CorrespondingSourceObject: {fileID: 3852262094168142395, guid: bbd2b0aab38333047b9e1171a8e6d268,
    type: 3}
  m_PrefabInstance: {fileID: 5700226459714751321}
  m_PrefabAsset: {fileID: 0}
