%YAML 1.1
%TAG !u! tag:unity3d.com,2011:
--- !u!1001 &6570696682497737167
PrefabInstance:
  m_ObjectHideFlags: 0
  serializedVersion: 2
  m_Modification:
    m_TransformParent: {fileID: 0}
    m_Modifications:
    - target: {fileID: 1533753553117432, guid: 75f1089cb32e0394c953a6d7b2c3e1f9, type: 3}
      propertyPath: m_Name
      value: RedMagicExplosion
      objectReference: {fileID: 0}
    - target: {fileID: 114450257557343454, guid: 75f1089cb32e0394c953a6d7b2c3e1f9,
        type: 3}
      propertyPath: m_Enabled
      value: 1
      objectReference: {fileID: 0}
    - target: {fileID: 4555173498094594, guid: 75f1089cb32e0394c953a6d7b2c3e1f9, type: 3}
      propertyPath: m_LocalPosition.x
      value: 4.46453
      objectReference: {fileID: 0}
    - target: {fileID: 4555173498094594, guid: 75f1089cb32e0394c953a6d7b2c3e1f9, type: 3}
      propertyPath: m_LocalPosition.y
      value: 0
      objectReference: {fileID: 0}
    - target: {fileID: 4555173498094594, guid: 75f1089cb32e0394c953a6d7b2c3e1f9, type: 3}
      propertyPath: m_LocalPosition.z
      value: -0.34205168
      objectReference: {fileID: 0}
    - target: {fileID: 4555173498094594, guid: 75f1089cb32e0394c953a6d7b2c3e1f9, type: 3}
      propertyPath: m_LocalRotation.x
      value: -0.7071068
      objectReference: {fileID: 0}
    - target: {fileID: 4555173498094594, guid: 75f1089cb32e0394c953a6d7b2c3e1f9, type: 3}
      propertyPath: m_LocalRotation.y
      value: -0
      objectReference: {fileID: 0}
    - target: {fileID: 4555173498094594, guid: 75f1089cb32e0394c953a6d7b2c3e1f9, type: 3}
      propertyPath: m_LocalRotation.z
      value: -0
      objectReference: {fileID: 0}
    - target: {fileID: 4555173498094594, guid: 75f1089cb32e0394c953a6d7b2c3e1f9, type: 3}
      propertyPath: m_LocalRotation.w
      value: 0.7071068
      objectReference: {fileID: 0}
    - target: {fileID: 4555173498094594, guid: 75f1089cb32e0394c953a6d7b2c3e1f9, type: 3}
      propertyPath: m_RootOrder
      value: 0
      objectReference: {fileID: 0}
    - target: {fileID: 4555173498094594, guid: 75f1089cb32e0394c953a6d7b2c3e1f9, type: 3}
      propertyPath: m_LocalEulerAnglesHint.x
      value: 0
      objectReference: {fileID: 0}
    - target: {fileID: 4555173498094594, guid: 75f1089cb32e0394c953a6d7b2c3e1f9, type: 3}
      propertyPath: m_LocalEulerAnglesHint.y
      value: 0
      objectReference: {fileID: 0}
    - target: {fileID: 4555173498094594, guid: 75f1089cb32e0394c953a6d7b2c3e1f9, type: 3}
      propertyPath: m_LocalEulerAnglesHint.z
      value: 0
      objectReference: {fileID: 0}
    m_RemovedComponents: []
  m_SourcePrefab: {fileID: 100100000, guid: 75f1089cb32e0394c953a6d7b2c3e1f9, type: 3}
