%YAML 1.1
%TAG !u! tag:unity3d.com,2011:
--- !u!74 &7400000
AnimationClip:
  m_ObjectHideFlags: 0
  m_CorrespondingSourceObject: {fileID: 0}
  m_PrefabInstance: {fileID: 0}
  m_PrefabAsset: {fileID: 0}
  m_Name: golem_down02_R
  serializedVersion: 6
  m_Legacy: 0
  m_Compressed: 0
  m_UseHighQualityCurve: 1
  m_RotationCurves:
  - curve:
      serializedVersion: 2
      m_Curve:
      - serializedVersion: 3
        time: 0.0000009536743
        value: {x: 0.0010404552, y: -0.0018022626, z: -0.4999991, w: 0.8660235}
        inSlope: {x: -0.11212963, y: 0.04758596, z: -0.14103541, w: -0.08235173}
        outSlope: {x: -0.11212963, y: 0.04758596, z: -0.14103541, w: -0.08235173}
        tangentMode: 0
        weightedMode: 0
        inWeight: {x: 0.33333334, y: 0.33333334, z: 0.33333334, w: 0.33333334}
        outWeight: {x: 0.33333334, y: 0.33333334, z: 0.33333334, w: 0.33333334}
      - serializedVersion: 3
        time: 0.06666756
        value: {x: -0.027743286, y: 0.009966324, z: -0.50062764, w: 0.86516064}
        inSlope: {x: -0.8299752, y: 0.30392277, z: 0.38824564, w: 0.18455163}
        outSlope: {x: -0.8299752, y: 0.30392277, z: 0.38824564, w: 0.18455163}
        tangentMode: 0
        weightedMode: 0
        inWeight: {x: 0.33333334, y: 0.33333334, z: 0.33333334, w: 0.33333334}
        outWeight: {x: 0.33333334, y: 0.33333334, z: 0.33333334, w: 0.33333334}
      - serializedVersion: 3
        time: 0.23333359
        value: {x: -0.3032742, y: 0.037755378, z: -0.3229903, w: 0.8956989}
        inSlope: {x: -2.2164745, y: -0.296225, z: 1.385325, w: -0.2440032}
        outSlope: {x: -2.2164745, y: -0.296225, z: 1.385325, w: -0.2440032}
        tangentMode: 0
        weightedMode: 0
        inWeight: {x: 0.33333334, y: 0.33333334, z: 0.33333334, w: 0.33333334}
        outWeight: {x: 0.33333334, y: 0.33333334, z: 0.33333334, w: 0.33333334}
      - serializedVersion: 3
        time: 0.33333397
        value: {x: -0.5213226, y: -0.023946518, z: -0.19909987, w: 0.8294628}
        inSlope: {x: -1.9315101, y: -0.8249251, z: 0.9714834, w: -0.99416995}
        outSlope: {x: -1.9315101, y: -0.8249251, z: 0.9714834, w: -0.99416995}
        tangentMode: 0
        weightedMode: 0
        inWeight: {x: 0.33333334, y: 0.33333334, z: 0.33333334, w: 0.33333334}
        outWeight: {x: 0.33333334, y: 0.33333334, z: 0.33333334, w: 0.33333334}
      - serializedVersion: 3
        time: 0.46666718
        value: {x: -0.68839693, y: -0.11855902, z: -0.12690656, w: 0.70423585}
        inSlope: {x: -0.44980374, y: -0.3191958, z: 0.16134724, w: -0.4523633}
        outSlope: {x: -0.44980374, y: -0.3191958, z: 0.16134724, w: -0.4523633}
        tangentMode: 0
        weightedMode: 0
        inWeight: {x: 0.33333334, y: 0.33333334, z: 0.33333334, w: 0.33333334}
        outWeight: {x: 0.33333334, y: 0.33333334, z: 0.33333334, w: 0.33333334}
      - serializedVersion: 3
        time: 0.56666756
        value: {x: -0.6946573, y: -0.11635421, z: -0.13210341, w: 0.697468}
        inSlope: {x: 0.0370602, y: 0.1944692, z: -0.19360149, w: 0.032199997}
        outSlope: {x: 0.0370602, y: 0.1944692, z: -0.19360149, w: 0.032199997}
        tangentMode: 0
        weightedMode: 0
        inWeight: {x: 0.33333334, y: 0.33333334, z: 0.33333334, w: 0.33333334}
        outWeight: {x: 0.33333334, y: 0.33333334, z: 0.33333334, w: 0.33333334}
      - serializedVersion: 3
        time: 0.7333336
        value: {x: -0.69025594, y: -0.094803385, z: -0.15344958, w: 0.7007227}
        inSlope: {x: -0.012602737, y: -0.057869233, z: 0.057030596, w: -0.007902637}
        outSlope: {x: -0.012602737, y: -0.057869233, z: 0.057030596, w: -0.007902637}
        tangentMode: 0
        weightedMode: 0
        inWeight: {x: 0.33333334, y: 0.33333334, z: 0.33333334, w: 0.33333334}
        outWeight: {x: 0.33333334, y: 0.33333334, z: 0.33333334, w: 0.33333334}
      - serializedVersion: 3
        time: 1.000001
        value: {x: -0.6961072, y: -0.12423676, z: -0.12423676, w: 0.6961072}
        inSlope: {x: -0.0056003775, y: -0.03125134, z: 0.031242847, w: -0.0055538868}
        outSlope: {x: -0.0056003775, y: -0.03125134, z: 0.031242847, w: -0.0055538868}
        tangentMode: 0
        weightedMode: 0
        inWeight: {x: 0.33333334, y: 0.33333334, z: 0.33333334, w: 0.33333334}
        outWeight: {x: 0.33333334, y: 0.33333334, z: 0.33333334, w: 0.33333334}
      m_PreInfinity: 2
      m_PostInfinity: 2
      m_RotationOrder: 4
    path: golem_root_jnt/golem_COG_jnt_C/golem_spine_jnt_C/golem_upArm_jnt_R
  m_CompressedRotationCurves: []
  m_EulerCurves: []
  m_PositionCurves:
  - curve:
      serializedVersion: 2
      m_Curve:
      - serializedVersion: 3
        time: 0
        value: {x: 0.019615877, y: 1.4288184e-15, z: 1.7793465}
        inSlope: {x: -0.003766552, y: -2.4759737e-16, z: -0.07284852}
        outSlope: {x: -0.003766552, y: -2.4759737e-16, z: -0.07284852}
        tangentMode: 0
        weightedMode: 0
        inWeight: {x: 0.33333334, y: 0.33333334, z: 0.33333334}
        outWeight: {x: 0.33333334, y: 0.33333334, z: 0.33333334}
      - serializedVersion: 3
        time: 0.0666666
        value: {x: 0.01870866, y: 1.369184e-15, z: 1.7618021}
        inSlope: {x: -0.026921589, y: -1.7696152e-15, z: -0.52062035}
        outSlope: {x: -0.026918475, y: -1.7694191e-15, z: -0.5205653}
        tangentMode: 0
        weightedMode: 0
        inWeight: {x: 0.33333334, y: 0.33333334, z: 0.33333334}
        outWeight: {x: 0.33333334, y: 0.33333334, z: 0.33333334}
      - serializedVersion: 3
        time: 0.4333334
        value: {x: 0.00095553417, y: 2.022222e-16, z: 1.418479}
        inSlope: {x: -0.026918413, y: -1.7694245e-15, z: -0.52057683}
        outSlope: {x: -0.026921613, y: -1.7696285e-15, z: -0.5206469}
        tangentMode: 0
        weightedMode: 0
        inWeight: {x: 0.33333334, y: 0.33333334, z: 0.33333334}
        outWeight: {x: 0.33333334, y: 0.33333334, z: 0.33333334}
      - serializedVersion: 3
        time: 0.46666622
        value: {x: 0.0002505364, y: 1.558808e-16, z: 1.4048449}
        inSlope: {x: -0.014337144, y: -9.424181e-16, z: -0.27728733}
        outSlope: {x: -0.014332446, y: -9.421136e-16, z: -0.27717587}
        tangentMode: 0
        weightedMode: 0
        inWeight: {x: 0.33333334, y: 0.33333334, z: 0.33333334}
        outWeight: {x: 0.33333334, y: 0.33333334, z: 0.33333334}
      - serializedVersion: 3
        time: 0.5
        value: {x: 5.684342e-16, y: 1.3941229e-16, z: 1.4}
        inSlope: {x: -0.003758068, y: -2.4703194e-16, z: -0.07268905}
        outSlope: {x: -0.0037580398, y: -2.4702842e-16, z: -0.07268536}
        tangentMode: 0
        weightedMode: 0
        inWeight: {x: 0.33333334, y: 0.33333334, z: 0.33333334}
        outWeight: {x: 0.33333334, y: 0.33333334, z: 0.33333334}
      - serializedVersion: 3
        time: 0.5333338
        value: {x: 5.684342e-16, y: 1.3941229e-16, z: 1.4}
        inSlope: {x: -0.00000007370205, y: -5.452501e-21, z: -0.000010901156}
        outSlope: {x: 7.8887294e-30, y: 9.860912e-31, z: 2.030153e-14}
        tangentMode: 0
        weightedMode: 0
        inWeight: {x: 0.33333334, y: 0.33333334, z: 0.33333334}
        outWeight: {x: 0.33333334, y: 0.33333334, z: 0.33333334}
      - serializedVersion: 3
        time: 1
        value: {x: 5.684342e-16, y: 1.3941229e-16, z: 1.4}
        inSlope: {x: 3.3807876e-30, y: 4.2259845e-31, z: -2.030095e-14}
        outSlope: {x: 3.3807876e-30, y: 4.2259845e-31, z: -2.030095e-14}
        tangentMode: 0
        weightedMode: 0
        inWeight: {x: 0.33333334, y: 0.33333334, z: 0.33333334}
        outWeight: {x: 0.33333334, y: 0.33333334, z: 0.33333334}
      m_PreInfinity: 2
      m_PostInfinity: 2
      m_RotationOrder: 4
    path: golem_root_jnt/golem_COG_jnt_C/golem_spine_jnt_C/golem_upArm_jnt_R
  m_ScaleCurves: []
  m_FloatCurves: []
  m_PPtrCurves: []
  m_SampleRate: 30
  m_WrapMode: 0
  m_Bounds:
    m_Center: {x: 0, y: 0, z: 0}
    m_Extent: {x: 0, y: 0, z: 0}
  m_ClipBindingConstant:
    genericBindings:
    - serializedVersion: 2
      path: 3726737527
      attribute: 1
      script: {fileID: 0}
      typeID: 4
      customType: 0
      isPPtrCurve: 0
    - serializedVersion: 2
      path: 3726737527
      attribute: 2
      script: {fileID: 0}
      typeID: 4
      customType: 0
      isPPtrCurve: 0
    pptrCurveMapping: []
  m_AnimationClipSettings:
    serializedVersion: 2
    m_AdditiveReferencePoseClip: {fileID: 0}
    m_AdditiveReferencePoseTime: 0
    m_StartTime: 0
    m_StopTime: 1.000001
    m_OrientationOffsetY: 0
    m_Level: 0
    m_CycleOffset: 0
    m_HasAdditiveReferencePose: 0
    m_LoopTime: 0
    m_LoopBlend: 0
    m_LoopBlendOrientation: 0
    m_LoopBlendPositionY: 0
    m_LoopBlendPositionXZ: 0
    m_KeepOriginalOrientation: 0
    m_KeepOriginalPositionY: 1
    m_KeepOriginalPositionXZ: 0
    m_HeightFromFeet: 0
    m_Mirror: 0
  m_EditorCurves:
  - curve:
      serializedVersion: 2
      m_Curve:
      - serializedVersion: 3
        time: 0.0000009536743
        value: 0.0010404552
        inSlope: -0.11212963
        outSlope: -0.11212963
        tangentMode: 0
        weightedMode: 0
        inWeight: 0.33333334
        outWeight: 0.33333334
      - serializedVersion: 3
        time: 0.06666756
        value: -0.027743286
        inSlope: -0.8299752
        outSlope: -0.8299752
        tangentMode: 0
        weightedMode: 0
        inWeight: 0.33333334
        outWeight: 0.33333334
      - serializedVersion: 3
        time: 0.23333359
        value: -0.3032742
        inSlope: -2.2164745
        outSlope: -2.2164745
        tangentMode: 0
        weightedMode: 0
        inWeight: 0.33333334
        outWeight: 0.33333334
      - serializedVersion: 3
        time: 0.33333397
        value: -0.5213226
        inSlope: -1.9315101
        outSlope: -1.9315101
        tangentMode: 0
        weightedMode: 0
        inWeight: 0.33333334
        outWeight: 0.33333334
      - serializedVersion: 3
        time: 0.46666718
        value: -0.68839693
        inSlope: -0.44980374
        outSlope: -0.44980374
        tangentMode: 0
        weightedMode: 0
        inWeight: 0.33333334
        outWeight: 0.33333334
      - serializedVersion: 3
        time: 0.56666756
        value: -0.6946573
        inSlope: 0.0370602
        outSlope: 0.0370602
        tangentMode: 0
        weightedMode: 0
        inWeight: 0.33333334
        outWeight: 0.33333334
      - serializedVersion: 3
        time: 0.7333336
        value: -0.69025594
        inSlope: -0.012602737
        outSlope: -0.012602737
        tangentMode: 0
        weightedMode: 0
        inWeight: 0.33333334
        outWeight: 0.33333334
      - serializedVersion: 3
        time: 1.000001
        value: -0.6961072
        inSlope: -0.0056003775
        outSlope: -0.0056003775
        tangentMode: 0
        weightedMode: 0
        inWeight: 0.33333334
        outWeight: 0.33333334
      m_PreInfinity: 2
      m_PostInfinity: 2
      m_RotationOrder: 4
    attribute: m_LocalRotation.x
    path: golem_root_jnt/golem_COG_jnt_C/golem_spine_jnt_C/golem_upArm_jnt_R
    classID: 4
    script: {fileID: 0}
  - curve:
      serializedVersion: 2
      m_Curve:
      - serializedVersion: 3
        time: 0.0000009536743
        value: -0.0018022626
        inSlope: 0.04758596
        outSlope: 0.04758596
        tangentMode: 0
        weightedMode: 0
        inWeight: 0.33333334
        outWeight: 0.33333334
      - serializedVersion: 3
        time: 0.06666756
        value: 0.009966324
        inSlope: 0.30392277
        outSlope: 0.30392277
        tangentMode: 0
        weightedMode: 0
        inWeight: 0.33333334
        outWeight: 0.33333334
      - serializedVersion: 3
        time: 0.23333359
        value: 0.037755378
        inSlope: -0.296225
        outSlope: -0.296225
        tangentMode: 0
        weightedMode: 0
        inWeight: 0.33333334
        outWeight: 0.33333334
      - serializedVersion: 3
        time: 0.33333397
        value: -0.023946518
        inSlope: -0.8249251
        outSlope: -0.8249251
        tangentMode: 0
        weightedMode: 0
        inWeight: 0.33333334
        outWeight: 0.33333334
      - serializedVersion: 3
        time: 0.46666718
        value: -0.11855902
        inSlope: -0.3191958
        outSlope: -0.3191958
        tangentMode: 0
        weightedMode: 0
        inWeight: 0.33333334
        outWeight: 0.33333334
      - serializedVersion: 3
        time: 0.56666756
        value: -0.11635421
        inSlope: 0.1944692
        outSlope: 0.1944692
        tangentMode: 0
        weightedMode: 0
        inWeight: 0.33333334
        outWeight: 0.33333334
      - serializedVersion: 3
        time: 0.7333336
        value: -0.094803385
        inSlope: -0.057869233
        outSlope: -0.057869233
        tangentMode: 0
        weightedMode: 0
        inWeight: 0.33333334
        outWeight: 0.33333334
      - serializedVersion: 3
        time: 1.000001
        value: -0.12423676
        inSlope: -0.03125134
        outSlope: -0.03125134
        tangentMode: 0
        weightedMode: 0
        inWeight: 0.33333334
        outWeight: 0.33333334
      m_PreInfinity: 2
      m_PostInfinity: 2
      m_RotationOrder: 4
    attribute: m_LocalRotation.y
    path: golem_root_jnt/golem_COG_jnt_C/golem_spine_jnt_C/golem_upArm_jnt_R
    classID: 4
    script: {fileID: 0}
  - curve:
      serializedVersion: 2
      m_Curve:
      - serializedVersion: 3
        time: 0.0000009536743
        value: -0.4999991
        inSlope: -0.14103541
        outSlope: -0.14103541
        tangentMode: 0
        weightedMode: 0
        inWeight: 0.33333334
        outWeight: 0.33333334
      - serializedVersion: 3
        time: 0.06666756
        value: -0.50062764
        inSlope: 0.38824564
        outSlope: 0.38824564
        tangentMode: 0
        weightedMode: 0
        inWeight: 0.33333334
        outWeight: 0.33333334
      - serializedVersion: 3
        time: 0.23333359
        value: -0.3229903
        inSlope: 1.385325
        outSlope: 1.385325
        tangentMode: 0
        weightedMode: 0
        inWeight: 0.33333334
        outWeight: 0.33333334
      - serializedVersion: 3
        time: 0.33333397
        value: -0.19909987
        inSlope: 0.9714834
        outSlope: 0.9714834
        tangentMode: 0
        weightedMode: 0
        inWeight: 0.33333334
        outWeight: 0.33333334
      - serializedVersion: 3
        time: 0.46666718
        value: -0.12690656
        inSlope: 0.16134724
        outSlope: 0.16134724
        tangentMode: 0
        weightedMode: 0
        inWeight: 0.33333334
        outWeight: 0.33333334
      - serializedVersion: 3
        time: 0.56666756
        value: -0.13210341
        inSlope: -0.19360149
        outSlope: -0.19360149
        tangentMode: 0
        weightedMode: 0
        inWeight: 0.33333334
        outWeight: 0.33333334
      - serializedVersion: 3
        time: 0.7333336
        value: -0.15344958
        inSlope: 0.057030596
        outSlope: 0.057030596
        tangentMode: 0
        weightedMode: 0
        inWeight: 0.33333334
        outWeight: 0.33333334
      - serializedVersion: 3
        time: 1.000001
        value: -0.12423676
        inSlope: 0.031242847
        outSlope: 0.031242847
        tangentMode: 0
        weightedMode: 0
        inWeight: 0.33333334
        outWeight: 0.33333334
      m_PreInfinity: 2
      m_PostInfinity: 2
      m_RotationOrder: 4
    attribute: m_LocalRotation.z
    path: golem_root_jnt/golem_COG_jnt_C/golem_spine_jnt_C/golem_upArm_jnt_R
    classID: 4
    script: {fileID: 0}
  - curve:
      serializedVersion: 2
      m_Curve:
      - serializedVersion: 3
        time: 0.0000009536743
        value: 0.8660235
        inSlope: -0.08235173
        outSlope: -0.08235173
        tangentMode: 0
        weightedMode: 0
        inWeight: 0.33333334
        outWeight: 0.33333334
      - serializedVersion: 3
        time: 0.06666756
        value: 0.86516064
        inSlope: 0.18455163
        outSlope: 0.18455163
        tangentMode: 0
        weightedMode: 0
        inWeight: 0.33333334
        outWeight: 0.33333334
      - serializedVersion: 3
        time: 0.23333359
        value: 0.8956989
        inSlope: -0.2440032
        outSlope: -0.2440032
        tangentMode: 0
        weightedMode: 0
        inWeight: 0.33333334
        outWeight: 0.33333334
      - serializedVersion: 3
        time: 0.33333397
        value: 0.8294628
        inSlope: -0.99416995
        outSlope: -0.99416995
        tangentMode: 0
        weightedMode: 0
        inWeight: 0.33333334
        outWeight: 0.33333334
      - serializedVersion: 3
        time: 0.46666718
        value: 0.70423585
        inSlope: -0.4523633
        outSlope: -0.4523633
        tangentMode: 0
        weightedMode: 0
        inWeight: 0.33333334
        outWeight: 0.33333334
      - serializedVersion: 3
        time: 0.56666756
        value: 0.697468
        inSlope: 0.032199997
        outSlope: 0.032199997
        tangentMode: 0
        weightedMode: 0
        inWeight: 0.33333334
        outWeight: 0.33333334
      - serializedVersion: 3
        time: 0.7333336
        value: 0.7007227
        inSlope: -0.007902637
        outSlope: -0.007902637
        tangentMode: 0
        weightedMode: 0
        inWeight: 0.33333334
        outWeight: 0.33333334
      - serializedVersion: 3
        time: 1.000001
        value: 0.6961072
        inSlope: -0.0055538868
        outSlope: -0.0055538868
        tangentMode: 0
        weightedMode: 0
        inWeight: 0.33333334
        outWeight: 0.33333334
      m_PreInfinity: 2
      m_PostInfinity: 2
      m_RotationOrder: 4
    attribute: m_LocalRotation.w
    path: golem_root_jnt/golem_COG_jnt_C/golem_spine_jnt_C/golem_upArm_jnt_R
    classID: 4
    script: {fileID: 0}
  - curve:
      serializedVersion: 2
      m_Curve:
      - serializedVersion: 3
        time: 0
        value: 0.019615877
        inSlope: -0.003766552
        outSlope: -0.003766552
        tangentMode: 0
        weightedMode: 0
        inWeight: 0.33333334
        outWeight: 0.33333334
      - serializedVersion: 3
        time: 0.0666666
        value: 0.01870866
        inSlope: -0.026921589
        outSlope: -0.026918475
        tangentMode: 0
        weightedMode: 0
        inWeight: 0.33333334
        outWeight: 0.33333334
      - serializedVersion: 3
        time: 0.4333334
        value: 0.00095553417
        inSlope: -0.026918413
        outSlope: -0.026921613
        tangentMode: 0
        weightedMode: 0
        inWeight: 0.33333334
        outWeight: 0.33333334
      - serializedVersion: 3
        time: 0.46666622
        value: 0.0002505364
        inSlope: -0.014337144
        outSlope: -0.014332446
        tangentMode: 0
        weightedMode: 0
        inWeight: 0.33333334
        outWeight: 0.33333334
      - serializedVersion: 3
        time: 0.5
        value: 5.684342e-16
        inSlope: -0.003758068
        outSlope: -0.0037580398
        tangentMode: 0
        weightedMode: 0
        inWeight: 0.33333334
        outWeight: 0.33333334
      - serializedVersion: 3
        time: 0.5333338
        value: 5.684342e-16
        inSlope: -0.00000007370205
        outSlope: 7.8887294e-30
        tangentMode: 0
        weightedMode: 0
        inWeight: 0.33333334
        outWeight: 0.33333334
      - serializedVersion: 3
        time: 1
        value: 5.684342e-16
        inSlope: 3.3807876e-30
        outSlope: 3.3807876e-30
        tangentMode: 0
        weightedMode: 0
        inWeight: 0.33333334
        outWeight: 0.33333334
      m_PreInfinity: 2
      m_PostInfinity: 2
      m_RotationOrder: 4
    attribute: m_LocalPosition.x
    path: golem_root_jnt/golem_COG_jnt_C/golem_spine_jnt_C/golem_upArm_jnt_R
    classID: 4
    script: {fileID: 0}
  - curve:
      serializedVersion: 2
      m_Curve:
      - serializedVersion: 3
        time: 0
        value: 1.4288184e-15
        inSlope: -2.4759737e-16
        outSlope: -2.4759737e-16
        tangentMode: 0
        weightedMode: 0
        inWeight: 0.33333334
        outWeight: 0.33333334
      - serializedVersion: 3
        time: 0.0666666
        value: 1.369184e-15
        inSlope: -1.7696152e-15
        outSlope: -1.7694191e-15
        tangentMode: 0
        weightedMode: 0
        inWeight: 0.33333334
        outWeight: 0.33333334
      - serializedVersion: 3
        time: 0.4333334
        value: 2.022222e-16
        inSlope: -1.7694245e-15
        outSlope: -1.7696285e-15
        tangentMode: 0
        weightedMode: 0
        inWeight: 0.33333334
        outWeight: 0.33333334
      - serializedVersion: 3
        time: 0.46666622
        value: 1.558808e-16
        inSlope: -9.424181e-16
        outSlope: -9.421136e-16
        tangentMode: 0
        weightedMode: 0
        inWeight: 0.33333334
        outWeight: 0.33333334
      - serializedVersion: 3
        time: 0.5
        value: 1.3941229e-16
        inSlope: -2.4703194e-16
        outSlope: -2.4702842e-16
        tangentMode: 0
        weightedMode: 0
        inWeight: 0.33333334
        outWeight: 0.33333334
      - serializedVersion: 3
        time: 0.5333338
        value: 1.3941229e-16
        inSlope: -5.452501e-21
        outSlope: 9.860912e-31
        tangentMode: 0
        weightedMode: 0
        inWeight: 0.33333334
        outWeight: 0.33333334
      - serializedVersion: 3
        time: 1
        value: 1.3941229e-16
        inSlope: 4.2259845e-31
        outSlope: 4.2259845e-31
        tangentMode: 0
        weightedMode: 0
        inWeight: 0.33333334
        outWeight: 0.33333334
      m_PreInfinity: 2
      m_PostInfinity: 2
      m_RotationOrder: 4
    attribute: m_LocalPosition.y
    path: golem_root_jnt/golem_COG_jnt_C/golem_spine_jnt_C/golem_upArm_jnt_R
    classID: 4
    script: {fileID: 0}
  - curve:
      serializedVersion: 2
      m_Curve:
      - serializedVersion: 3
        time: 0
        value: 1.7793465
        inSlope: -0.07284852
        outSlope: -0.07284852
        tangentMode: 0
        weightedMode: 0
        inWeight: 0.33333334
        outWeight: 0.33333334
      - serializedVersion: 3
        time: 0.0666666
        value: 1.7618021
        inSlope: -0.52062035
        outSlope: -0.5205653
        tangentMode: 0
        weightedMode: 0
        inWeight: 0.33333334
        outWeight: 0.33333334
      - serializedVersion: 3
        time: 0.4333334
        value: 1.418479
        inSlope: -0.52057683
        outSlope: -0.5206469
        tangentMode: 0
        weightedMode: 0
        inWeight: 0.33333334
        outWeight: 0.33333334
      - serializedVersion: 3
        time: 0.46666622
        value: 1.4048449
        inSlope: -0.27728733
        outSlope: -0.27717587
        tangentMode: 0
        weightedMode: 0
        inWeight: 0.33333334
        outWeight: 0.33333334
      - serializedVersion: 3
        time: 0.5
        value: 1.4
        inSlope: -0.07268905
        outSlope: -0.07268536
        tangentMode: 0
        weightedMode: 0
        inWeight: 0.33333334
        outWeight: 0.33333334
      - serializedVersion: 3
        time: 0.5333338
        value: 1.4
        inSlope: -0.000010901156
        outSlope: 2.030153e-14
        tangentMode: 0
        weightedMode: 0
        inWeight: 0.33333334
        outWeight: 0.33333334
      - serializedVersion: 3
        time: 1
        value: 1.4
        inSlope: -2.030095e-14
        outSlope: -2.030095e-14
        tangentMode: 0
        weightedMode: 0
        inWeight: 0.33333334
        outWeight: 0.33333334
      m_PreInfinity: 2
      m_PostInfinity: 2
      m_RotationOrder: 4
    attribute: m_LocalPosition.z
    path: golem_root_jnt/golem_COG_jnt_C/golem_spine_jnt_C/golem_upArm_jnt_R
    classID: 4
    script: {fileID: 0}
  m_EulerEditorCurves:
  - curve:
      serializedVersion: 2
      m_Curve:
      - serializedVersion: 3
        time: 0.0000009536743
        value: -0.0000081441995
        inSlope: -8.400063
        outSlope: -8.400063
        tangentMode: 0
        weightedMode: 0
        inWeight: 0.33333334
        outWeight: 0.33333334
      - serializedVersion: 3
        time: 0.06666756
        value: -2.1792526
        inSlope: -66.6421
        outSlope: -67.57071
        tangentMode: 0
        weightedMode: 0
        inWeight: 0.33333334
        outWeight: 0.33333334
      - serializedVersion: 3
        time: 0.23333359
        value: -31.258192
        inSlope: -276.16608
        outSlope: -276.80182
        tangentMode: 0
        weightedMode: 0
        inWeight: 0.33333334
        outWeight: 0.33333334
      - serializedVersion: 3
        time: 0.33333397
        value: -60.970608
        inSlope: -286.6401
        outSlope: -286.0555
        tangentMode: 0
        weightedMode: 0
        inWeight: 0.33333334
        outWeight: 0.33333334
      - serializedVersion: 3
        time: 0.46666718
        value: -88.54922
        inSlope: 17.497461
        outSlope: -4.2498617
        tangentMode: 0
        weightedMode: 0
        inWeight: 0.33333334
        outWeight: 0.33333334
      - serializedVersion: 3
        time: 0.56666756
        value: -88.70366
        inSlope: 31.934387
        outSlope: 31.940125
        tangentMode: 0
        weightedMode: 0
        inWeight: 0.33333334
        outWeight: 0.33333334
      - serializedVersion: 3
        time: 0.7333336
        value: -85.17147
        inSlope: -9.466406
        outSlope: -9.46504
        tangentMode: 0
        weightedMode: 0
        inWeight: 0.33333334
        outWeight: 0.33333334
      - serializedVersion: 3
        time: 1.000001
        value: -90
        inSlope: 5.147768
        outSlope: 5.147768
        tangentMode: 0
        weightedMode: 0
        inWeight: 0.33333334
        outWeight: 0.33333334
      m_PreInfinity: 2
      m_PostInfinity: 2
      m_RotationOrder: 4
    attribute: localEulerAngles.x
    path: golem_root_jnt/golem_COG_jnt_C/golem_spine_jnt_C/golem_upArm_jnt_R
    classID: 4
    script: {fileID: 0}
  - curve:
      serializedVersion: 2
      m_Curve:
      - serializedVersion: 3
        time: 0.0000009536743
        value: -0.23846895
        inSlope: 11.177433
        outSlope: 11.177433
        tangentMode: 0
        weightedMode: 0
        inWeight: 0.33333334
        outWeight: 0.33333334
      - serializedVersion: 3
        time: 0.06666756
        value: 2.5823722
        inSlope: 76.4743
        outSlope: 75.67073
        tangentMode: 0
        weightedMode: 0
        inWeight: 0.33333334
        outWeight: 0.33333334
      - serializedVersion: 3
        time: 0.23333359
        value: 17.956648
        inSlope: 48.489475
        outSlope: 52.316296
        tangentMode: 0
        weightedMode: 0
        inWeight: 0.33333334
        outWeight: 0.33333334
      - serializedVersion: 3
        time: 0.33333397
        value: 20.238531
        inSlope: -15.499533
        outSlope: -20.806194
        tangentMode: 0
        weightedMode: 0
        inWeight: 0.33333334
        outWeight: 0.33333334
      - serializedVersion: 3
        time: 0.46666718
        value: 17.79419
        inSlope: -4046.968
        outSlope: -5390.377
        tangentMode: 0
        weightedMode: 0
        inWeight: 0.33333334
        outWeight: 0.33333334
      - serializedVersion: 3
        time: 0.56666756
        value: 69.76208
        inSlope: -0.008926357
        outSlope: -0.0042572184
        tangentMode: 0
        weightedMode: 0
        inWeight: 0.33333334
        outWeight: 0.33333334
      - serializedVersion: 3
        time: 0.7333336
        value: 69.76156
        inSlope: 0.00013732963
        outSlope: -0.00094413507
        tangentMode: 0
        weightedMode: 0
        inWeight: 0.33333334
        outWeight: 0.33333334
      - serializedVersion: 3
        time: 1.000001
        value: -20.238478
        inSlope: -1012.50995
        outSlope: -1012.50995
        tangentMode: 0
        weightedMode: 0
        inWeight: 0.33333334
        outWeight: 0.33333334
      m_PreInfinity: 2
      m_PostInfinity: 2
      m_RotationOrder: 4
    attribute: localEulerAngles.y
    path: golem_root_jnt/golem_COG_jnt_C/golem_spine_jnt_C/golem_upArm_jnt_R
    classID: 4
    script: {fileID: 0}
  - curve:
      serializedVersion: 2
      m_Curve:
      - serializedVersion: 3
        time: 0.0000009536743
        value: -60.00002
        inSlope: -18.715742
        outSlope: -18.715742
        tangentMode: 0
        weightedMode: 0
        inWeight: 0.33333334
        outWeight: 0.33333334
      - serializedVersion: 3
        time: 0.06666756
        value: -60.161
        inSlope: 45.208954
        outSlope: 43.75274
        tangentMode: 0
        weightedMode: 0
        inWeight: 0.33333334
        outWeight: 0.33333334
      - serializedVersion: 3
        time: 0.23333359
        value: -44.720394
        inSlope: 82.44385
        outSlope: 82.494995
        tangentMode: 0
        weightedMode: 0
        inWeight: 0.33333334
        outWeight: 0.33333334
      - serializedVersion: 3
        time: 0.33333397
        value: -38.991074
        inSlope: 39.84955
        outSlope: 44.982876
        tangentMode: 0
        weightedMode: 0
        inWeight: 0.33333334
        outWeight: 0.33333334
      - serializedVersion: 3
        time: 0.46666718
        value: -37.786724
        inSlope: 4034.3447
        outSlope: 5377.749
        tangentMode: 0
        weightedMode: 0
        inWeight: 0.33333334
        outWeight: 0.33333334
      - serializedVersion: 3
        time: 0.56666756
        value: -90.000595
        inSlope: 0.010528524
        outSlope: 0.0049438667
        tangentMode: 0
        weightedMode: 0
        inWeight: 0.33333334
        outWeight: 0.33333334
      - serializedVersion: 3
        time: 0.7333336
        value: -90.00004
        inSlope: 0
        outSlope: 0.0010299656
        tangentMode: 0
        weightedMode: 0
        inWeight: 0.33333334
        outWeight: 0.33333334
      - serializedVersion: 3
        time: 1.000001
        value: 0
        inSlope: 1012.50934
        outSlope: 1012.50934
        tangentMode: 0
        weightedMode: 0
        inWeight: 0.33333334
        outWeight: 0.33333334
      m_PreInfinity: 2
      m_PostInfinity: 2
      m_RotationOrder: 4
    attribute: localEulerAngles.z
    path: golem_root_jnt/golem_COG_jnt_C/golem_spine_jnt_C/golem_upArm_jnt_R
    classID: 4
    script: {fileID: 0}
  m_HasGenericRootTransform: 0
  m_HasMotionFloatCurves: 0
  m_Events: []
