%YAML 1.1
%TAG !u! tag:unity3d.com,2011:
--- !u!74 &7400000
AnimationClip:
  m_ObjectHideFlags: 0
  m_CorrespondingSourceObject: {fileID: 0}
  m_PrefabInstance: {fileID: 0}
  m_PrefabAsset: {fileID: 0}
  m_Name: golem_up01_R
  serializedVersion: 6
  m_Legacy: 0
  m_Compressed: 0
  m_UseHighQualityCurve: 1
  m_RotationCurves:
  - curve:
      serializedVersion: 2
      m_Curve:
      - serializedVersion: 3
        time: 0
        value: {x: -0.6961072, y: -0.12423676, z: -0.12423676, w: 0.6961072}
        inSlope: {x: 0.15282868, y: 0.09984679, z: -0.03822684, w: 0.16236125}
        outSlope: {x: 0.15282868, y: 0.09984679, z: -0.03822684, w: 0.16236125}
        tangentMode: 0
        weightedMode: 0
        inWeight: {x: 0.33333334, y: 0.33333334, z: 0.33333334, w: 0.33333334}
        outWeight: {x: 0.33333334, y: 0.33333334, z: 0.33333334, w: 0.33333334}
      - serializedVersion: 3
        time: 0.10000001
        value: {x: -0.6520119, y: -0.09697013, z: -0.13642824, w: 0.73950297}
        inSlope: {x: 0.86028993, y: 0.49420148, z: -0.265952, w: 0.7642937}
        outSlope: {x: 0.86028993, y: 0.49420148, z: -0.265952, w: 0.7642937}
        tangentMode: 0
        weightedMode: 0
        inWeight: {x: 0.33333334, y: 0.33333334, z: 0.33333334, w: 0.33333334}
        outWeight: {x: 0.33333334, y: 0.33333334, z: 0.33333334, w: 0.33333334}
      - serializedVersion: 3
        time: 0.26666668
        value: {x: -0.40895757, y: 0.0045117983, z: -0.23805106, w: 0.88094556}
        inSlope: {x: 1.9038057, y: 0.5102676, z: -0.97640127, w: 0.6145603}
        outSlope: {x: 1.9038057, y: 0.5102676, z: -0.97640127, w: 0.6145603}
        tangentMode: 0
        weightedMode: 0
        inWeight: {x: 0.33333334, y: 0.33333334, z: 0.33333334, w: 0.33333334}
        outWeight: {x: 0.33333334, y: 0.33333334, z: 0.33333334, w: 0.33333334}
      - serializedVersion: 3
        time: 0.40000004
        value: {x: -0.15021907, y: 0.032338273, z: -0.39164275, w: 0.9071959}
        inSlope: {x: 1.7875473, y: -0.1334112, z: -1.1977601, w: -0.21170673}
        outSlope: {x: 1.7875473, y: -0.1334112, z: -1.1977601, w: -0.21170673}
        tangentMode: 0
        weightedMode: 0
        inWeight: {x: 0.33333334, y: 0.33333334, z: 0.33333334, w: 0.33333334}
        outWeight: {x: 0.33333334, y: 0.33333334, z: 0.33333334, w: 0.33333334}
      - serializedVersion: 3
        time: 0.4666667
        value: {x: -0.04239263, y: 0.013243276, z: -0.46749064, w: 0.88288164}
        inSlope: {x: 1.4124353, y: -0.40356505, z: -1.0357615, w: -0.46776497}
        outSlope: {x: 1.4124353, y: -0.40356505, z: -1.0357615, w: -0.46776497}
        tangentMode: 0
        weightedMode: 0
        inWeight: {x: 0.33333334, y: 0.33333334, z: 0.33333334, w: 0.33333334}
        outWeight: {x: 0.33333334, y: 0.33333334, z: 0.33333334, w: 0.33333334}
      - serializedVersion: 3
        time: 0.5
        value: {x: 0.0010405625, y: -0.001802307, z: -0.4999989, w: 0.86602354}
        inSlope: {x: 0.6511037, y: -0.2259081, z: -0.29790062, w: -0.14516684}
        outSlope: {x: 0.6511037, y: -0.2259081, z: -0.29790062, w: -0.14516684}
        tangentMode: 0
        weightedMode: 0
        inWeight: {x: 0.33333334, y: 0.33333334, z: 0.33333334, w: 0.33333334}
        outWeight: {x: 0.33333334, y: 0.33333334, z: 0.33333334, w: 0.33333334}
      - serializedVersion: 3
        time: 0.53333336
        value: {x: 0.0010142397, y: -0.0018172503, z: -0.48735064, w: 0.8732039}
        inSlope: {x: -0.0007928977, y: -0.00044252918, z: 0.38099226, w: 0.2126382}
        outSlope: {x: -0.0007928977, y: -0.00044252918, z: 0.38099226, w: 0.2126382}
        tangentMode: 0
        weightedMode: 0
        inWeight: {x: 0.33333334, y: 0.33333334, z: 0.33333334, w: 0.33333334}
        outWeight: {x: 0.33333334, y: 0.33333334, z: 0.33333334, w: 0.33333334}
      - serializedVersion: 3
        time: 0.6666667
        value: {x: 0.0009068603, y: -0.0018731484, z: -0.4357539, w: 0.90006346}
        inSlope: {x: -0.00081728713, y: -0.00039568174, z: 0.39271343, w: 0.1901275}
        outSlope: {x: -0.00081728713, y: -0.00039568174, z: 0.39271343, w: 0.1901275}
        tangentMode: 0
        weightedMode: 0
        inWeight: {x: 0.33333334, y: 0.33333334, z: 0.33333334, w: 0.33333334}
        outWeight: {x: 0.33333334, y: 0.33333334, z: 0.33333334, w: 0.33333334}
      - serializedVersion: 3
        time: 0.70000005
        value: {x: 0.00087952137, y: -0.0018861397, z: -0.42261735, w: 0.90630585}
        inSlope: {x: -0.000109416374, y: -0.000052711403, z: 0.052574575, w: 0.025327064}
        outSlope: {x: -0.000109416374, y: -0.000052711403, z: 0.052574575, w: 0.025327064}
        tangentMode: 0
        weightedMode: 0
        inWeight: {x: 0.33333334, y: 0.33333334, z: 0.33333334, w: 0.33333334}
        outWeight: {x: 0.33333334, y: 0.33333334, z: 0.33333334, w: 0.33333334}
      - serializedVersion: 3
        time: 0.7666667
        value: {x: 0.0009221892, y: -0.0018656495, z: -0.44311965, w: 0.8964601}
        inSlope: {x: 0.0006966508, y: 0.0003446653, z: -0.33474612, w: -0.16561463}
        outSlope: {x: 0.0006966508, y: 0.0003446653, z: -0.33474612, w: -0.16561463}
        tangentMode: 0
        weightedMode: 0
        inWeight: {x: 0.33333334, y: 0.33333334, z: 0.33333334, w: 0.33333334}
        outWeight: {x: 0.33333334, y: 0.33333334, z: 0.33333334, w: 0.33333334}
      - serializedVersion: 3
        time: 1
        value: {x: 0.0010405625, y: -0.001802307, z: -0.4999989, w: 0.86602354}
        inSlope: {x: -0.0047039525, y: -0.016165918, z: -0.06976685, w: -0.04037971}
        outSlope: {x: -0.0047039525, y: -0.016165918, z: -0.06976685, w: -0.04037971}
        tangentMode: 0
        weightedMode: 0
        inWeight: {x: 0.33333334, y: 0.33333334, z: 0.33333334, w: 0.33333334}
        outWeight: {x: 0.33333334, y: 0.33333334, z: 0.33333334, w: 0.33333334}
      m_PreInfinity: 2
      m_PostInfinity: 2
      m_RotationOrder: 4
    path: golem_root_jnt/golem_COG_jnt_C/golem_spine_jnt_C/golem_upArm_jnt_R
  m_CompressedRotationCurves: []
  m_EulerCurves: []
  m_PositionCurves:
  - curve:
      serializedVersion: 2
      m_Curve:
      - serializedVersion: 3
        time: 0
        value: {x: 5.684342e-16, y: 1.3941229e-16, z: 1.4}
        inSlope: {x: 0.007516091, y: 2.6893455e-16, z: 0.1453382}
        outSlope: {x: 0.007516091, y: 2.6893455e-16, z: 0.1453382}
        tangentMode: 0
        weightedMode: 0
        inWeight: {x: 0.33333334, y: 0.33333334, z: 0.33333334}
        outWeight: {x: 0.33333334, y: 0.33333334, z: 0.33333334}
      - serializedVersion: 3
        time: 0.033333335
        value: {x: 0.0002505364, y: 1.4837679e-16, z: 1.4048449}
        inSlope: {x: 0.014333011, y: 5.1284854e-16, z: 0.27717412}
        outSlope: {x: 0.014333018, y: 5.1284796e-16, z: 0.27719042}
        tangentMode: 0
        weightedMode: 0
        inWeight: {x: 0.33333334, y: 0.33333334, z: 0.33333334}
        outWeight: {x: 0.33333334, y: 0.33333334, z: 0.33333334}
      - serializedVersion: 3
        time: 0.1
        value: {x: 0.002045076, y: 2.1258709e-16, z: 1.439549}
        inSlope: {x: 0.03740565, y: 1.3384105e-15, z: 0.72341126}
        outSlope: {x: 0.037405644, y: 1.3384103e-15, z: 0.7233858}
        tangentMode: 0
        weightedMode: 0
        inWeight: {x: 0.33333334, y: 0.33333334, z: 0.33333334}
        outWeight: {x: 0.33333334, y: 0.33333334, z: 0.33333334}
      - serializedVersion: 3
        time: 0.46666667
        value: {x: 0.01941366, y: 8.340517e-16, z: 1.775435}
        inSlope: {x: 0.014332891, y: 5.128374e-16, z: 0.27716386}
        outSlope: {x: 0.0143329315, y: 5.128525e-16, z: 0.27716804}
        tangentMode: 0
        weightedMode: 0
        inWeight: {x: 0.33333334, y: 0.33333334, z: 0.33333334}
        outWeight: {x: 0.33333334, y: 0.33333334, z: 0.33333334}
      - serializedVersion: 3
        time: 0.56666666
        value: {x: 0.019664189, y: 9.957141e-16, z: 1.7802811}
        inSlope: {x: 1.1895258e-16, y: 3.762929e-15, z: -0}
        outSlope: {x: 2.7755552e-16, y: 3.7628867e-15, z: -0}
        tangentMode: 0
        weightedMode: 0
        inWeight: {x: 0.33333334, y: 0.33333334, z: 0.33333334}
        outWeight: {x: 0.33333334, y: 0.33333334, z: 0.33333334}
      - serializedVersion: 3
        time: 1
        value: {x: 0.019664189, y: 1.7382758e-15, z: 1.780281}
        inSlope: {x: 0, y: 4.572276e-17, z: 0}
        outSlope: {x: 0, y: 4.572276e-17, z: 0}
        tangentMode: 0
        weightedMode: 0
        inWeight: {x: 0.33333334, y: 0.33333334, z: 0.33333334}
        outWeight: {x: 0.33333334, y: 0.33333334, z: 0.33333334}
      m_PreInfinity: 2
      m_PostInfinity: 2
      m_RotationOrder: 4
    path: golem_root_jnt/golem_COG_jnt_C/golem_spine_jnt_C/golem_upArm_jnt_R
  m_ScaleCurves: []
  m_FloatCurves: []
  m_PPtrCurves: []
  m_SampleRate: 30
  m_WrapMode: 0
  m_Bounds:
    m_Center: {x: 0, y: 0, z: 0}
    m_Extent: {x: 0, y: 0, z: 0}
  m_ClipBindingConstant:
    genericBindings:
    - serializedVersion: 2
      path: 3726737527
      attribute: 1
      script: {fileID: 0}
      typeID: 4
      customType: 0
      isPPtrCurve: 0
    - serializedVersion: 2
      path: 3726737527
      attribute: 2
      script: {fileID: 0}
      typeID: 4
      customType: 0
      isPPtrCurve: 0
    pptrCurveMapping: []
  m_AnimationClipSettings:
    serializedVersion: 2
    m_AdditiveReferencePoseClip: {fileID: 0}
    m_AdditiveReferencePoseTime: 0
    m_StartTime: 0
    m_StopTime: 1
    m_OrientationOffsetY: 0
    m_Level: 0
    m_CycleOffset: 0
    m_HasAdditiveReferencePose: 0
    m_LoopTime: 0
    m_LoopBlend: 0
    m_LoopBlendOrientation: 0
    m_LoopBlendPositionY: 0
    m_LoopBlendPositionXZ: 0
    m_KeepOriginalOrientation: 0
    m_KeepOriginalPositionY: 1
    m_KeepOriginalPositionXZ: 0
    m_HeightFromFeet: 0
    m_Mirror: 0
  m_EditorCurves:
  - curve:
      serializedVersion: 2
      m_Curve:
      - serializedVersion: 3
        time: 0
        value: -0.6961072
        inSlope: 0.15282868
        outSlope: 0.15282868
        tangentMode: 0
        weightedMode: 0
        inWeight: 0.33333334
        outWeight: 0.33333334
      - serializedVersion: 3
        time: 0.10000001
        value: -0.6520119
        inSlope: 0.86028993
        outSlope: 0.86028993
        tangentMode: 0
        weightedMode: 0
        inWeight: 0.33333334
        outWeight: 0.33333334
      - serializedVersion: 3
        time: 0.26666668
        value: -0.40895757
        inSlope: 1.9038057
        outSlope: 1.9038057
        tangentMode: 0
        weightedMode: 0
        inWeight: 0.33333334
        outWeight: 0.33333334
      - serializedVersion: 3
        time: 0.40000004
        value: -0.15021907
        inSlope: 1.7875473
        outSlope: 1.7875473
        tangentMode: 0
        weightedMode: 0
        inWeight: 0.33333334
        outWeight: 0.33333334
      - serializedVersion: 3
        time: 0.4666667
        value: -0.04239263
        inSlope: 1.4124353
        outSlope: 1.4124353
        tangentMode: 0
        weightedMode: 0
        inWeight: 0.33333334
        outWeight: 0.33333334
      - serializedVersion: 3
        time: 0.5
        value: 0.0010405625
        inSlope: 0.6511037
        outSlope: 0.6511037
        tangentMode: 0
        weightedMode: 0
        inWeight: 0.33333334
        outWeight: 0.33333334
      - serializedVersion: 3
        time: 0.53333336
        value: 0.0010142397
        inSlope: -0.0007928977
        outSlope: -0.0007928977
        tangentMode: 0
        weightedMode: 0
        inWeight: 0.33333334
        outWeight: 0.33333334
      - serializedVersion: 3
        time: 0.6666667
        value: 0.0009068603
        inSlope: -0.00081728713
        outSlope: -0.00081728713
        tangentMode: 0
        weightedMode: 0
        inWeight: 0.33333334
        outWeight: 0.33333334
      - serializedVersion: 3
        time: 0.70000005
        value: 0.00087952137
        inSlope: -0.000109416374
        outSlope: -0.000109416374
        tangentMode: 0
        weightedMode: 0
        inWeight: 0.33333334
        outWeight: 0.33333334
      - serializedVersion: 3
        time: 0.7666667
        value: 0.0009221892
        inSlope: 0.0006966508
        outSlope: 0.0006966508
        tangentMode: 0
        weightedMode: 0
        inWeight: 0.33333334
        outWeight: 0.33333334
      - serializedVersion: 3
        time: 1
        value: 0.0010405625
        inSlope: -0.0047039525
        outSlope: -0.0047039525
        tangentMode: 0
        weightedMode: 0
        inWeight: 0.33333334
        outWeight: 0.33333334
      m_PreInfinity: 2
      m_PostInfinity: 2
      m_RotationOrder: 4
    attribute: m_LocalRotation.x
    path: golem_root_jnt/golem_COG_jnt_C/golem_spine_jnt_C/golem_upArm_jnt_R
    classID: 4
    script: {fileID: 0}
  - curve:
      serializedVersion: 2
      m_Curve:
      - serializedVersion: 3
        time: 0
        value: -0.12423676
        inSlope: 0.09984679
        outSlope: 0.09984679
        tangentMode: 0
        weightedMode: 0
        inWeight: 0.33333334
        outWeight: 0.33333334
      - serializedVersion: 3
        time: 0.10000001
        value: -0.09697013
        inSlope: 0.49420148
        outSlope: 0.49420148
        tangentMode: 0
        weightedMode: 0
        inWeight: 0.33333334
        outWeight: 0.33333334
      - serializedVersion: 3
        time: 0.26666668
        value: 0.0045117983
        inSlope: 0.5102676
        outSlope: 0.5102676
        tangentMode: 0
        weightedMode: 0
        inWeight: 0.33333334
        outWeight: 0.33333334
      - serializedVersion: 3
        time: 0.40000004
        value: 0.032338273
        inSlope: -0.1334112
        outSlope: -0.1334112
        tangentMode: 0
        weightedMode: 0
        inWeight: 0.33333334
        outWeight: 0.33333334
      - serializedVersion: 3
        time: 0.4666667
        value: 0.013243276
        inSlope: -0.40356505
        outSlope: -0.40356505
        tangentMode: 0
        weightedMode: 0
        inWeight: 0.33333334
        outWeight: 0.33333334
      - serializedVersion: 3
        time: 0.5
        value: -0.001802307
        inSlope: -0.2259081
        outSlope: -0.2259081
        tangentMode: 0
        weightedMode: 0
        inWeight: 0.33333334
        outWeight: 0.33333334
      - serializedVersion: 3
        time: 0.53333336
        value: -0.0018172503
        inSlope: -0.00044252918
        outSlope: -0.00044252918
        tangentMode: 0
        weightedMode: 0
        inWeight: 0.33333334
        outWeight: 0.33333334
      - serializedVersion: 3
        time: 0.6666667
        value: -0.0018731484
        inSlope: -0.00039568174
        outSlope: -0.00039568174
        tangentMode: 0
        weightedMode: 0
        inWeight: 0.33333334
        outWeight: 0.33333334
      - serializedVersion: 3
        time: 0.70000005
        value: -0.0018861397
        inSlope: -0.000052711403
        outSlope: -0.000052711403
        tangentMode: 0
        weightedMode: 0
        inWeight: 0.33333334
        outWeight: 0.33333334
      - serializedVersion: 3
        time: 0.7666667
        value: -0.0018656495
        inSlope: 0.0003446653
        outSlope: 0.0003446653
        tangentMode: 0
        weightedMode: 0
        inWeight: 0.33333334
        outWeight: 0.33333334
      - serializedVersion: 3
        time: 1
        value: -0.001802307
        inSlope: -0.016165918
        outSlope: -0.016165918
        tangentMode: 0
        weightedMode: 0
        inWeight: 0.33333334
        outWeight: 0.33333334
      m_PreInfinity: 2
      m_PostInfinity: 2
      m_RotationOrder: 4
    attribute: m_LocalRotation.y
    path: golem_root_jnt/golem_COG_jnt_C/golem_spine_jnt_C/golem_upArm_jnt_R
    classID: 4
    script: {fileID: 0}
  - curve:
      serializedVersion: 2
      m_Curve:
      - serializedVersion: 3
        time: 0
        value: -0.12423676
        inSlope: -0.03822684
        outSlope: -0.03822684
        tangentMode: 0
        weightedMode: 0
        inWeight: 0.33333334
        outWeight: 0.33333334
      - serializedVersion: 3
        time: 0.10000001
        value: -0.13642824
        inSlope: -0.265952
        outSlope: -0.265952
        tangentMode: 0
        weightedMode: 0
        inWeight: 0.33333334
        outWeight: 0.33333334
      - serializedVersion: 3
        time: 0.26666668
        value: -0.23805106
        inSlope: -0.97640127
        outSlope: -0.97640127
        tangentMode: 0
        weightedMode: 0
        inWeight: 0.33333334
        outWeight: 0.33333334
      - serializedVersion: 3
        time: 0.40000004
        value: -0.39164275
        inSlope: -1.1977601
        outSlope: -1.1977601
        tangentMode: 0
        weightedMode: 0
        inWeight: 0.33333334
        outWeight: 0.33333334
      - serializedVersion: 3
        time: 0.4666667
        value: -0.46749064
        inSlope: -1.0357615
        outSlope: -1.0357615
        tangentMode: 0
        weightedMode: 0
        inWeight: 0.33333334
        outWeight: 0.33333334
      - serializedVersion: 3
        time: 0.5
        value: -0.4999989
        inSlope: -0.29790062
        outSlope: -0.29790062
        tangentMode: 0
        weightedMode: 0
        inWeight: 0.33333334
        outWeight: 0.33333334
      - serializedVersion: 3
        time: 0.53333336
        value: -0.48735064
        inSlope: 0.38099226
        outSlope: 0.38099226
        tangentMode: 0
        weightedMode: 0
        inWeight: 0.33333334
        outWeight: 0.33333334
      - serializedVersion: 3
        time: 0.6666667
        value: -0.4357539
        inSlope: 0.39271343
        outSlope: 0.39271343
        tangentMode: 0
        weightedMode: 0
        inWeight: 0.33333334
        outWeight: 0.33333334
      - serializedVersion: 3
        time: 0.70000005
        value: -0.42261735
        inSlope: 0.052574575
        outSlope: 0.052574575
        tangentMode: 0
        weightedMode: 0
        inWeight: 0.33333334
        outWeight: 0.33333334
      - serializedVersion: 3
        time: 0.7666667
        value: -0.44311965
        inSlope: -0.33474612
        outSlope: -0.33474612
        tangentMode: 0
        weightedMode: 0
        inWeight: 0.33333334
        outWeight: 0.33333334
      - serializedVersion: 3
        time: 1
        value: -0.4999989
        inSlope: -0.06976685
        outSlope: -0.06976685
        tangentMode: 0
        weightedMode: 0
        inWeight: 0.33333334
        outWeight: 0.33333334
      m_PreInfinity: 2
      m_PostInfinity: 2
      m_RotationOrder: 4
    attribute: m_LocalRotation.z
    path: golem_root_jnt/golem_COG_jnt_C/golem_spine_jnt_C/golem_upArm_jnt_R
    classID: 4
    script: {fileID: 0}
  - curve:
      serializedVersion: 2
      m_Curve:
      - serializedVersion: 3
        time: 0
        value: 0.6961072
        inSlope: 0.16236125
        outSlope: 0.16236125
        tangentMode: 0
        weightedMode: 0
        inWeight: 0.33333334
        outWeight: 0.33333334
      - serializedVersion: 3
        time: 0.10000001
        value: 0.73950297
        inSlope: 0.7642937
        outSlope: 0.7642937
        tangentMode: 0
        weightedMode: 0
        inWeight: 0.33333334
        outWeight: 0.33333334
      - serializedVersion: 3
        time: 0.26666668
        value: 0.88094556
        inSlope: 0.6145603
        outSlope: 0.6145603
        tangentMode: 0
        weightedMode: 0
        inWeight: 0.33333334
        outWeight: 0.33333334
      - serializedVersion: 3
        time: 0.40000004
        value: 0.9071959
        inSlope: -0.21170673
        outSlope: -0.21170673
        tangentMode: 0
        weightedMode: 0
        inWeight: 0.33333334
        outWeight: 0.33333334
      - serializedVersion: 3
        time: 0.4666667
        value: 0.88288164
        inSlope: -0.46776497
        outSlope: -0.46776497
        tangentMode: 0
        weightedMode: 0
        inWeight: 0.33333334
        outWeight: 0.33333334
      - serializedVersion: 3
        time: 0.5
        value: 0.86602354
        inSlope: -0.14516684
        outSlope: -0.14516684
        tangentMode: 0
        weightedMode: 0
        inWeight: 0.33333334
        outWeight: 0.33333334
      - serializedVersion: 3
        time: 0.53333336
        value: 0.8732039
        inSlope: 0.2126382
        outSlope: 0.2126382
        tangentMode: 0
        weightedMode: 0
        inWeight: 0.33333334
        outWeight: 0.33333334
      - serializedVersion: 3
        time: 0.6666667
        value: 0.90006346
        inSlope: 0.1901275
        outSlope: 0.1901275
        tangentMode: 0
        weightedMode: 0
        inWeight: 0.33333334
        outWeight: 0.33333334
      - serializedVersion: 3
        time: 0.70000005
        value: 0.90630585
        inSlope: 0.025327064
        outSlope: 0.025327064
        tangentMode: 0
        weightedMode: 0
        inWeight: 0.33333334
        outWeight: 0.33333334
      - serializedVersion: 3
        time: 0.7666667
        value: 0.8964601
        inSlope: -0.16561463
        outSlope: -0.16561463
        tangentMode: 0
        weightedMode: 0
        inWeight: 0.33333334
        outWeight: 0.33333334
      - serializedVersion: 3
        time: 1
        value: 0.86602354
        inSlope: -0.04037971
        outSlope: -0.04037971
        tangentMode: 0
        weightedMode: 0
        inWeight: 0.33333334
        outWeight: 0.33333334
      m_PreInfinity: 2
      m_PostInfinity: 2
      m_RotationOrder: 4
    attribute: m_LocalRotation.w
    path: golem_root_jnt/golem_COG_jnt_C/golem_spine_jnt_C/golem_upArm_jnt_R
    classID: 4
    script: {fileID: 0}
  - curve:
      serializedVersion: 2
      m_Curve:
      - serializedVersion: 3
        time: 0
        value: 5.684342e-16
        inSlope: 0.007516091
        outSlope: 0.007516091
        tangentMode: 0
        weightedMode: 0
        inWeight: 0.33333334
        outWeight: 0.33333334
      - serializedVersion: 3
        time: 0.033333335
        value: 0.0002505364
        inSlope: 0.014333011
        outSlope: 0.014333018
        tangentMode: 0
        weightedMode: 0
        inWeight: 0.33333334
        outWeight: 0.33333334
      - serializedVersion: 3
        time: 0.1
        value: 0.002045076
        inSlope: 0.03740565
        outSlope: 0.037405644
        tangentMode: 0
        weightedMode: 0
        inWeight: 0.33333334
        outWeight: 0.33333334
      - serializedVersion: 3
        time: 0.46666667
        value: 0.01941366
        inSlope: 0.014332891
        outSlope: 0.0143329315
        tangentMode: 0
        weightedMode: 0
        inWeight: 0.33333334
        outWeight: 0.33333334
      - serializedVersion: 3
        time: 0.56666666
        value: 0.019664189
        inSlope: 1.1895258e-16
        outSlope: 2.7755552e-16
        tangentMode: 0
        weightedMode: 0
        inWeight: 0.33333334
        outWeight: 0.33333334
      - serializedVersion: 3
        time: 1
        value: 0.019664189
        inSlope: 0
        outSlope: 0
        tangentMode: 0
        weightedMode: 0
        inWeight: 0.33333334
        outWeight: 0.33333334
      m_PreInfinity: 2
      m_PostInfinity: 2
      m_RotationOrder: 4
    attribute: m_LocalPosition.x
    path: golem_root_jnt/golem_COG_jnt_C/golem_spine_jnt_C/golem_upArm_jnt_R
    classID: 4
    script: {fileID: 0}
  - curve:
      serializedVersion: 2
      m_Curve:
      - serializedVersion: 3
        time: 0
        value: 1.3941229e-16
        inSlope: 2.6893455e-16
        outSlope: 2.6893455e-16
        tangentMode: 0
        weightedMode: 0
        inWeight: 0.33333334
        outWeight: 0.33333334
      - serializedVersion: 3
        time: 0.033333335
        value: 1.4837679e-16
        inSlope: 5.1284854e-16
        outSlope: 5.1284796e-16
        tangentMode: 0
        weightedMode: 0
        inWeight: 0.33333334
        outWeight: 0.33333334
      - serializedVersion: 3
        time: 0.1
        value: 2.1258709e-16
        inSlope: 1.3384105e-15
        outSlope: 1.3384103e-15
        tangentMode: 0
        weightedMode: 0
        inWeight: 0.33333334
        outWeight: 0.33333334
      - serializedVersion: 3
        time: 0.46666667
        value: 8.340517e-16
        inSlope: 5.128374e-16
        outSlope: 5.128525e-16
        tangentMode: 0
        weightedMode: 0
        inWeight: 0.33333334
        outWeight: 0.33333334
      - serializedVersion: 3
        time: 0.56666666
        value: 9.957141e-16
        inSlope: 3.762929e-15
        outSlope: 3.7628867e-15
        tangentMode: 0
        weightedMode: 0
        inWeight: 0.33333334
        outWeight: 0.33333334
      - serializedVersion: 3
        time: 1
        value: 1.7382758e-15
        inSlope: 4.572276e-17
        outSlope: 4.572276e-17
        tangentMode: 0
        weightedMode: 0
        inWeight: 0.33333334
        outWeight: 0.33333334
      m_PreInfinity: 2
      m_PostInfinity: 2
      m_RotationOrder: 4
    attribute: m_LocalPosition.y
    path: golem_root_jnt/golem_COG_jnt_C/golem_spine_jnt_C/golem_upArm_jnt_R
    classID: 4
    script: {fileID: 0}
  - curve:
      serializedVersion: 2
      m_Curve:
      - serializedVersion: 3
        time: 0
        value: 1.4
        inSlope: 0.1453382
        outSlope: 0.1453382
        tangentMode: 0
        weightedMode: 0
        inWeight: 0.33333334
        outWeight: 0.33333334
      - serializedVersion: 3
        time: 0.033333335
        value: 1.4048449
        inSlope: 0.27717412
        outSlope: 0.27719042
        tangentMode: 0
        weightedMode: 0
        inWeight: 0.33333334
        outWeight: 0.33333334
      - serializedVersion: 3
        time: 0.1
        value: 1.439549
        inSlope: 0.72341126
        outSlope: 0.7233858
        tangentMode: 0
        weightedMode: 0
        inWeight: 0.33333334
        outWeight: 0.33333334
      - serializedVersion: 3
        time: 0.46666667
        value: 1.775435
        inSlope: 0.27716386
        outSlope: 0.27716804
        tangentMode: 0
        weightedMode: 0
        inWeight: 0.33333334
        outWeight: 0.33333334
      - serializedVersion: 3
        time: 0.56666666
        value: 1.7802811
        inSlope: -0
        outSlope: -0
        tangentMode: 0
        weightedMode: 0
        inWeight: 0.33333334
        outWeight: 0.33333334
      - serializedVersion: 3
        time: 1
        value: 1.780281
        inSlope: 0
        outSlope: 0
        tangentMode: 0
        weightedMode: 0
        inWeight: 0.33333334
        outWeight: 0.33333334
      m_PreInfinity: 2
      m_PostInfinity: 2
      m_RotationOrder: 4
    attribute: m_LocalPosition.z
    path: golem_root_jnt/golem_COG_jnt_C/golem_spine_jnt_C/golem_upArm_jnt_R
    classID: 4
    script: {fileID: 0}
  m_EulerEditorCurves:
  - curve:
      serializedVersion: 2
      m_Curve:
      - serializedVersion: 3
        time: 0
        value: -90
        inSlope: 27.886961
        outSlope: 27.886961
        tangentMode: 0
        weightedMode: 0
        inWeight: 0.33333334
        outWeight: 0.33333334
      - serializedVersion: 3
        time: 0.10000001
        value: -82.21712
        inSlope: 145.66359
        outSlope: 145.52957
        tangentMode: 0
        weightedMode: 0
        inWeight: 0.33333334
        outWeight: 0.33333334
      - serializedVersion: 3
        time: 0.26666668
        value: -45.92177
        inSlope: 253.73007
        outSlope: 254.27338
        tangentMode: 0
        weightedMode: 0
        inWeight: 0.33333334
        outWeight: 0.33333334
      - serializedVersion: 3
        time: 0.40000004
        value: -14.31343
        inSlope: 189.56389
        outSlope: 192.0451
        tangentMode: 0
        weightedMode: 0
        inWeight: 0.33333334
        outWeight: 0.33333334
      - serializedVersion: 3
        time: 0.4666667
        value: -3.5817792
        inSlope: 122.55557
        outSlope: 124.02132
        tangentMode: 0
        weightedMode: 0
        inWeight: 0.33333334
        outWeight: 0.33333334
      - serializedVersion: 3
        time: 0.5
        value: 0.0000000133402125
        inSlope: 51.35564
        outSlope: 51.35555
        tangentMode: 0
        weightedMode: 0
        inWeight: 0.33333334
        outWeight: 0.33333334
      - serializedVersion: 3
        time: 0.53333336
        value: -0.0000000066701062
        inSlope: 0.0000006003091
        outSlope: 0.0000001500774
        tangentMode: 0
        weightedMode: 0
        inWeight: 0.33333334
        outWeight: 0.33333334
      - serializedVersion: 3
        time: 0.6666667
        value: 0.0000000133402125
        inSlope: -0.0000003001548
        outSlope: -0.0000012006182
        tangentMode: 0
        weightedMode: 0
        inWeight: 0.33333334
        outWeight: 0.33333334
      - serializedVersion: 3
        time: 0.70000005
        value: -0
        inSlope: 0
        outSlope: 0
        tangentMode: 0
        weightedMode: 0
        inWeight: 0.33333334
        outWeight: 0.33333334
      - serializedVersion: 3
        time: 0.7666667
        value: -0.0000000133402125
        inSlope: 0.0000006003096
        outSlope: 0.00000017151704
        tangentMode: 0
        weightedMode: 0
        inWeight: 0.33333334
        outWeight: 0.33333334
      - serializedVersion: 3
        time: 1
        value: 0.0000000133402125
        inSlope: -1.420572
        outSlope: -1.420572
        tangentMode: 0
        weightedMode: 0
        inWeight: 0.33333334
        outWeight: 0.33333334
      m_PreInfinity: 2
      m_PostInfinity: 2
      m_RotationOrder: 4
    attribute: localEulerAngles.x
    path: golem_root_jnt/golem_COG_jnt_C/golem_spine_jnt_C/golem_upArm_jnt_R
    classID: 4
    script: {fileID: 0}
  - curve:
      serializedVersion: 2
      m_Curve:
      - serializedVersion: 3
        time: 0
        value: -20.238478
        inSlope: 1015.79767
        outSlope: 1015.79767
        tangentMode: 0
        weightedMode: 0
        inWeight: 0.33333334
        outWeight: 0.33333334
      - serializedVersion: 3
        time: 0.10000001
        value: 14.753599
        inSlope: 17.735193
        outSlope: 15.875828
        tangentMode: 0
        weightedMode: 0
        inWeight: 0.33333334
        outWeight: 0.33333334
      - serializedVersion: 3
        time: 0.26666668
        value: 16.937084
        inSlope: -17.515709
        outSlope: -16.49245
        tangentMode: 0
        weightedMode: 0
        inWeight: 0.33333334
        outWeight: 0.33333334
      - serializedVersion: 3
        time: 0.40000004
        value: 10.485578
        inSlope: -93.94127
        outSlope: -90.55812
        tangentMode: 0
        weightedMode: 0
        inWeight: 0.33333334
        outWeight: 0.33333334
      - serializedVersion: 3
        time: 0.4666667
        value: 3.620302
        inSlope: -115.92781
        outSlope: -114.55058
        tangentMode: 0
        weightedMode: 0
        inWeight: 0.33333334
        outWeight: 0.33333334
      - serializedVersion: 3
        time: 0.5
        value: -0.23847951
        inSlope: -59.892036
        outSlope: -59.89193
        tangentMode: 0
        weightedMode: 0
        inWeight: 0.33333334
        outWeight: 0.33333334
      - serializedVersion: 3
        time: 0.53333336
        value: -0.23847951
        inSlope: -0.000009387723
        outSlope: -0.0000023469331
        tangentMode: 0
        weightedMode: 0
        inWeight: 0.33333334
        outWeight: 0.33333334
      - serializedVersion: 3
        time: 0.6666667
        value: -0.23847951
        inSlope: -0.0000023469331
        outSlope: -0.000009387723
        tangentMode: 0
        weightedMode: 0
        inWeight: 0.33333334
        outWeight: 0.33333334
      - serializedVersion: 3
        time: 0.70000005
        value: -0.23847954
        inSlope: -0.000006705517
        outSlope: -0.0000033527615
        tangentMode: 0
        weightedMode: 0
        inWeight: 0.33333334
        outWeight: 0.33333334
      - serializedVersion: 3
        time: 0.7666667
        value: -0.23847951
        inSlope: -0.0000046938662
        outSlope: -0.0000013411047
        tangentMode: 0
        weightedMode: 0
        inWeight: 0.33333334
        outWeight: 0.33333334
      - serializedVersion: 3
        time: 1
        value: -0.23847951
        inSlope: -1.3258159
        outSlope: -1.3258159
        tangentMode: 0
        weightedMode: 0
        inWeight: 0.33333334
        outWeight: 0.33333334
      m_PreInfinity: 2
      m_PostInfinity: 2
      m_RotationOrder: 4
    attribute: localEulerAngles.y
    path: golem_root_jnt/golem_COG_jnt_C/golem_spine_jnt_C/golem_upArm_jnt_R
    classID: 4
    script: {fileID: 0}
  - curve:
      serializedVersion: 2
      m_Curve:
      - serializedVersion: 3
        time: 0
        value: 0
        inSlope: -1010.7476
        outSlope: -1010.7476
        tangentMode: 0
        weightedMode: 0
        inWeight: 0.33333334
        outWeight: 0.33333334
      - serializedVersion: 3
        time: 0.10000001
        value: -33.796745
        inSlope: -0.6896209
        outSlope: 1.2050629
        tangentMode: 0
        weightedMode: 0
        inWeight: 0.33333334
        outWeight: 0.33333334
      - serializedVersion: 3
        time: 0.26666668
        value: -37.46175
        inSlope: -45.82171
        outSlope: -46.18918
        tangentMode: 0
        weightedMode: 0
        inWeight: 0.33333334
        outWeight: 0.33333334
      - serializedVersion: 3
        time: 0.40000004
        value: -48.0206
        inSlope: -113.02836
        outSlope: -110.52865
        tangentMode: 0
        weightedMode: 0
        inWeight: 0.33333334
        outWeight: 0.33333334
      - serializedVersion: 3
        time: 0.4666667
        value: -55.91616
        inSlope: -125.12673
        outSlope: -123.866844
        tangentMode: 0
        weightedMode: 0
        inWeight: 0.33333334
        outWeight: 0.33333334
      - serializedVersion: 3
        time: 0.5
        value: -59.999992
        inSlope: -38.276405
        outSlope: -38.276337
        tangentMode: 0
        weightedMode: 0
        inWeight: 0.33333334
        outWeight: 0.33333334
      - serializedVersion: 3
        time: 0.53333336
        value: -58.333324
        inSlope: 49.99702
        outSlope: 49.99183
        tangentMode: 0
        weightedMode: 0
        inWeight: 0.33333334
        outWeight: 0.33333334
      - serializedVersion: 3
        time: 0.6666667
        value: -51.666668
        inSlope: 49.99183
        outSlope: 49.99702
        tangentMode: 0
        weightedMode: 0
        inWeight: 0.33333334
        outWeight: 0.33333334
      - serializedVersion: 3
        time: 0.70000005
        value: -49.999996
        inSlope: 6.686205
        outSlope: 6.686383
        tangentMode: 0
        weightedMode: 0
        inWeight: 0.33333334
        outWeight: 0.33333334
      - serializedVersion: 3
        time: 0.7666667
        value: -52.60631
        inSlope: -42.7957
        outSlope: -42.78543
        tangentMode: 0
        weightedMode: 0
        inWeight: 0.33333334
        outWeight: 0.33333334
      - serializedVersion: 3
        time: 1
        value: -59.999992
        inSlope: -9.232834
        outSlope: -9.232834
        tangentMode: 0
        weightedMode: 0
        inWeight: 0.33333334
        outWeight: 0.33333334
      m_PreInfinity: 2
      m_PostInfinity: 2
      m_RotationOrder: 4
    attribute: localEulerAngles.z
    path: golem_root_jnt/golem_COG_jnt_C/golem_spine_jnt_C/golem_upArm_jnt_R
    classID: 4
    script: {fileID: 0}
  m_HasGenericRootTransform: 0
  m_HasMotionFloatCurves: 0
  m_Events: []
