%YAML 1.1
%TAG !u! tag:unity3d.com,2011:
--- !u!74 &7400000
AnimationClip:
  m_ObjectHideFlags: 0
  m_CorrespondingSourceObject: {fileID: 0}
  m_PrefabInstance: {fileID: 0}
  m_PrefabAsset: {fileID: 0}
  m_Name: golem_open02_R
  serializedVersion: 6
  m_Legacy: 0
  m_Compressed: 0
  m_UseHighQualityCurve: 1
  m_RotationCurves:
  - curve:
      serializedVersion: 2
      m_Curve:
      - serializedVersion: 3
        time: 0
        value: {x: -0.24309921, y: -0.29945153, z: -0.6642109, w: 0.6405741}
        inSlope: {x: -0.17052428, y: 0.03532711, z: 0.054723077, w: 0.016597524}
        outSlope: {x: -0.17052428, y: 0.03532711, z: 0.054723077, w: 0.016597524}
        tangentMode: 0
        weightedMode: 0
        inWeight: {x: 0.33333334, y: 0.33333334, z: 0.33333334, w: 0.33333334}
        outWeight: {x: 0.33333334, y: 0.33333334, z: 0.33333334, w: 0.33333334}
      - serializedVersion: 3
        time: 0.06666684
        value: {x: -0.27745822, y: -0.29269964, z: -0.6503975, w: 0.64368236}
        inSlope: {x: -0.92850876, y: 0.15447214, z: 0.40410647, w: 0.07024086}
        outSlope: {x: -0.92850876, y: 0.15447214, z: 0.40410647, w: 0.07024086}
        tangentMode: 0
        weightedMode: 0
        inWeight: {x: 0.33333334, y: 0.33333334, z: 0.33333334, w: 0.33333334}
        outWeight: {x: 0.33333334, y: 0.33333334, z: 0.33333334, w: 0.33333334}
      - serializedVersion: 3
        time: 0.20000029
        value: {x: -0.4043736, y: -0.30016944, z: -0.5800707, w: 0.64023304}
        inSlope: {x: -0.54822695, y: -0.5006255, z: 0.37714598, w: -0.23961031}
        outSlope: {x: -0.54822695, y: -0.5006255, z: 0.37714598, w: -0.23961031}
        tangentMode: 0
        weightedMode: 0
        inWeight: {x: 0.33333334, y: 0.33333334, z: 0.33333334, w: 0.33333334}
        outWeight: {x: 0.33333334, y: 0.33333334, z: 0.33333334, w: 0.33333334}
      - serializedVersion: 3
        time: 0.3666668
        value: {x: -0.4614275, y: -0.45184818, z: -0.5358028, w: 0.5439056}
        inSlope: {x: -0.22136918, y: -0.9173736, z: 0.19005793, w: -0.7581074}
        outSlope: {x: -0.22136918, y: -0.9173736, z: 0.19005793, w: -0.7581074}
        tangentMode: 0
        weightedMode: 0
        inWeight: {x: 0.33333334, y: 0.33333334, z: 0.33333334, w: 0.33333334}
        outWeight: {x: 0.33333334, y: 0.33333334, z: 0.33333334, w: 0.33333334}
      - serializedVersion: 3
        time: 0.50000024
        value: {x: -0.47662854, y: -0.52232677, z: -0.52232695, w: 0.4766283}
        inSlope: {x: -0.04021216, y: -0.05510693, z: 0.036740042, w: -0.05954376}
        outSlope: {x: -0.04021216, y: -0.05510693, z: 0.036740042, w: -0.05954376}
        tangentMode: 0
        weightedMode: 0
        inWeight: {x: 0.33333334, y: 0.33333334, z: 0.33333334, w: 0.33333334}
        outWeight: {x: 0.33333334, y: 0.33333334, z: 0.33333334, w: 0.33333334}
      - serializedVersion: 3
        time: 0.7000003
        value: {x: -0.49895835, y: -0.5010395, z: -0.5010395, w: 0.49895835}
        inSlope: {x: -0.013076501, y: 0.012960275, z: 0.012960275, w: 0.013076501}
        outSlope: {x: -0.013076501, y: 0.012960275, z: 0.012960275, w: 0.013076501}
        tangentMode: 0
        weightedMode: 0
        inWeight: {x: 0.33333334, y: 0.33333334, z: 0.33333334, w: 0.33333334}
        outWeight: {x: 0.33333334, y: 0.33333334, z: 0.33333334, w: 0.33333334}
      - serializedVersion: 3
        time: 1
        value: {x: -0.47838092, y: -0.52082217, z: -0.52082217, w: 0.47838092}
        inSlope: {x: 0.0042296937, y: -0.004892199, z: -0.004892199, w: -0.0042296937}
        outSlope: {x: 0.0042296937, y: -0.004892199, z: -0.004892199, w: -0.0042296937}
        tangentMode: 0
        weightedMode: 0
        inWeight: {x: 0.33333334, y: 0.33333334, z: 0.33333334, w: 0.33333334}
        outWeight: {x: 0.33333334, y: 0.33333334, z: 0.33333334, w: 0.33333334}
      m_PreInfinity: 2
      m_PostInfinity: 2
      m_RotationOrder: 4
    path: golem_root_jnt/golem_COG_jnt_C/golem_spine_jnt_C/golem_upArm_jnt_R
  m_CompressedRotationCurves: []
  m_EulerCurves: []
  m_PositionCurves: []
  m_ScaleCurves: []
  m_FloatCurves: []
  m_PPtrCurves: []
  m_SampleRate: 30
  m_WrapMode: 0
  m_Bounds:
    m_Center: {x: 0, y: 0, z: 0}
    m_Extent: {x: 0, y: 0, z: 0}
  m_ClipBindingConstant:
    genericBindings:
    - serializedVersion: 2
      path: 3726737527
      attribute: 2
      script: {fileID: 0}
      typeID: 4
      customType: 0
      isPPtrCurve: 0
    pptrCurveMapping: []
  m_AnimationClipSettings:
    serializedVersion: 2
    m_AdditiveReferencePoseClip: {fileID: 0}
    m_AdditiveReferencePoseTime: 0
    m_StartTime: 0
    m_StopTime: 1
    m_OrientationOffsetY: 0
    m_Level: 0
    m_CycleOffset: 0
    m_HasAdditiveReferencePose: 0
    m_LoopTime: 0
    m_LoopBlend: 0
    m_LoopBlendOrientation: 0
    m_LoopBlendPositionY: 0
    m_LoopBlendPositionXZ: 0
    m_KeepOriginalOrientation: 0
    m_KeepOriginalPositionY: 1
    m_KeepOriginalPositionXZ: 0
    m_HeightFromFeet: 0
    m_Mirror: 0
  m_EditorCurves:
  - curve:
      serializedVersion: 2
      m_Curve:
      - serializedVersion: 3
        time: 0
        value: -0.24309921
        inSlope: -0.17052428
        outSlope: -0.17052428
        tangentMode: 0
        weightedMode: 0
        inWeight: 0.33333334
        outWeight: 0.33333334
      - serializedVersion: 3
        time: 0.06666684
        value: -0.27745822
        inSlope: -0.92850876
        outSlope: -0.92850876
        tangentMode: 0
        weightedMode: 0
        inWeight: 0.33333334
        outWeight: 0.33333334
      - serializedVersion: 3
        time: 0.20000029
        value: -0.4043736
        inSlope: -0.54822695
        outSlope: -0.54822695
        tangentMode: 0
        weightedMode: 0
        inWeight: 0.33333334
        outWeight: 0.33333334
      - serializedVersion: 3
        time: 0.3666668
        value: -0.4614275
        inSlope: -0.22136918
        outSlope: -0.22136918
        tangentMode: 0
        weightedMode: 0
        inWeight: 0.33333334
        outWeight: 0.33333334
      - serializedVersion: 3
        time: 0.50000024
        value: -0.47662854
        inSlope: -0.04021216
        outSlope: -0.04021216
        tangentMode: 0
        weightedMode: 0
        inWeight: 0.33333334
        outWeight: 0.33333334
      - serializedVersion: 3
        time: 0.7000003
        value: -0.49895835
        inSlope: -0.013076501
        outSlope: -0.013076501
        tangentMode: 0
        weightedMode: 0
        inWeight: 0.33333334
        outWeight: 0.33333334
      - serializedVersion: 3
        time: 1
        value: -0.47838092
        inSlope: 0.0042296937
        outSlope: 0.0042296937
        tangentMode: 0
        weightedMode: 0
        inWeight: 0.33333334
        outWeight: 0.33333334
      m_PreInfinity: 2
      m_PostInfinity: 2
      m_RotationOrder: 4
    attribute: m_LocalRotation.x
    path: golem_root_jnt/golem_COG_jnt_C/golem_spine_jnt_C/golem_upArm_jnt_R
    classID: 4
    script: {fileID: 0}
  - curve:
      serializedVersion: 2
      m_Curve:
      - serializedVersion: 3
        time: 0
        value: -0.29945153
        inSlope: 0.03532711
        outSlope: 0.03532711
        tangentMode: 0
        weightedMode: 0
        inWeight: 0.33333334
        outWeight: 0.33333334
      - serializedVersion: 3
        time: 0.06666684
        value: -0.29269964
        inSlope: 0.15447214
        outSlope: 0.15447214
        tangentMode: 0
        weightedMode: 0
        inWeight: 0.33333334
        outWeight: 0.33333334
      - serializedVersion: 3
        time: 0.20000029
        value: -0.30016944
        inSlope: -0.5006255
        outSlope: -0.5006255
        tangentMode: 0
        weightedMode: 0
        inWeight: 0.33333334
        outWeight: 0.33333334
      - serializedVersion: 3
        time: 0.3666668
        value: -0.45184818
        inSlope: -0.9173736
        outSlope: -0.9173736
        tangentMode: 0
        weightedMode: 0
        inWeight: 0.33333334
        outWeight: 0.33333334
      - serializedVersion: 3
        time: 0.50000024
        value: -0.52232677
        inSlope: -0.05510693
        outSlope: -0.05510693
        tangentMode: 0
        weightedMode: 0
        inWeight: 0.33333334
        outWeight: 0.33333334
      - serializedVersion: 3
        time: 0.7000003
        value: -0.5010395
        inSlope: 0.012960275
        outSlope: 0.012960275
        tangentMode: 0
        weightedMode: 0
        inWeight: 0.33333334
        outWeight: 0.33333334
      - serializedVersion: 3
        time: 1
        value: -0.52082217
        inSlope: -0.004892199
        outSlope: -0.004892199
        tangentMode: 0
        weightedMode: 0
        inWeight: 0.33333334
        outWeight: 0.33333334
      m_PreInfinity: 2
      m_PostInfinity: 2
      m_RotationOrder: 4
    attribute: m_LocalRotation.y
    path: golem_root_jnt/golem_COG_jnt_C/golem_spine_jnt_C/golem_upArm_jnt_R
    classID: 4
    script: {fileID: 0}
  - curve:
      serializedVersion: 2
      m_Curve:
      - serializedVersion: 3
        time: 0
        value: -0.6642109
        inSlope: 0.054723077
        outSlope: 0.054723077
        tangentMode: 0
        weightedMode: 0
        inWeight: 0.33333334
        outWeight: 0.33333334
      - serializedVersion: 3
        time: 0.06666684
        value: -0.6503975
        inSlope: 0.40410647
        outSlope: 0.40410647
        tangentMode: 0
        weightedMode: 0
        inWeight: 0.33333334
        outWeight: 0.33333334
      - serializedVersion: 3
        time: 0.20000029
        value: -0.5800707
        inSlope: 0.37714598
        outSlope: 0.37714598
        tangentMode: 0
        weightedMode: 0
        inWeight: 0.33333334
        outWeight: 0.33333334
      - serializedVersion: 3
        time: 0.3666668
        value: -0.5358028
        inSlope: 0.19005793
        outSlope: 0.19005793
        tangentMode: 0
        weightedMode: 0
        inWeight: 0.33333334
        outWeight: 0.33333334
      - serializedVersion: 3
        time: 0.50000024
        value: -0.52232695
        inSlope: 0.036740042
        outSlope: 0.036740042
        tangentMode: 0
        weightedMode: 0
        inWeight: 0.33333334
        outWeight: 0.33333334
      - serializedVersion: 3
        time: 0.7000003
        value: -0.5010395
        inSlope: 0.012960275
        outSlope: 0.012960275
        tangentMode: 0
        weightedMode: 0
        inWeight: 0.33333334
        outWeight: 0.33333334
      - serializedVersion: 3
        time: 1
        value: -0.52082217
        inSlope: -0.004892199
        outSlope: -0.004892199
        tangentMode: 0
        weightedMode: 0
        inWeight: 0.33333334
        outWeight: 0.33333334
      m_PreInfinity: 2
      m_PostInfinity: 2
      m_RotationOrder: 4
    attribute: m_LocalRotation.z
    path: golem_root_jnt/golem_COG_jnt_C/golem_spine_jnt_C/golem_upArm_jnt_R
    classID: 4
    script: {fileID: 0}
  - curve:
      serializedVersion: 2
      m_Curve:
      - serializedVersion: 3
        time: 0
        value: 0.6405741
        inSlope: 0.016597524
        outSlope: 0.016597524
        tangentMode: 0
        weightedMode: 0
        inWeight: 0.33333334
        outWeight: 0.33333334
      - serializedVersion: 3
        time: 0.06666684
        value: 0.64368236
        inSlope: 0.07024086
        outSlope: 0.07024086
        tangentMode: 0
        weightedMode: 0
        inWeight: 0.33333334
        outWeight: 0.33333334
      - serializedVersion: 3
        time: 0.20000029
        value: 0.64023304
        inSlope: -0.23961031
        outSlope: -0.23961031
        tangentMode: 0
        weightedMode: 0
        inWeight: 0.33333334
        outWeight: 0.33333334
      - serializedVersion: 3
        time: 0.3666668
        value: 0.5439056
        inSlope: -0.7581074
        outSlope: -0.7581074
        tangentMode: 0
        weightedMode: 0
        inWeight: 0.33333334
        outWeight: 0.33333334
      - serializedVersion: 3
        time: 0.50000024
        value: 0.4766283
        inSlope: -0.05954376
        outSlope: -0.05954376
        tangentMode: 0
        weightedMode: 0
        inWeight: 0.33333334
        outWeight: 0.33333334
      - serializedVersion: 3
        time: 0.7000003
        value: 0.49895835
        inSlope: 0.013076501
        outSlope: 0.013076501
        tangentMode: 0
        weightedMode: 0
        inWeight: 0.33333334
        outWeight: 0.33333334
      - serializedVersion: 3
        time: 1
        value: 0.47838092
        inSlope: -0.0042296937
        outSlope: -0.0042296937
        tangentMode: 0
        weightedMode: 0
        inWeight: 0.33333334
        outWeight: 0.33333334
      m_PreInfinity: 2
      m_PostInfinity: 2
      m_RotationOrder: 4
    attribute: m_LocalRotation.w
    path: golem_root_jnt/golem_COG_jnt_C/golem_spine_jnt_C/golem_upArm_jnt_R
    classID: 4
    script: {fileID: 0}
  m_EulerEditorCurves:
  - curve:
      serializedVersion: 2
      m_Curve:
      - serializedVersion: 3
        time: 0
        value: -45.157326
        inSlope: -11.329278
        outSlope: -11.329278
        tangentMode: 0
        weightedMode: 0
        inWeight: 0.33333334
        outWeight: 0.33333334
      - serializedVersion: 3
        time: 0.06666684
        value: -47.555557
        inSlope: -68.29153
        outSlope: -68.22676
        tangentMode: 0
        weightedMode: 0
        inWeight: 0.33333334
        outWeight: 0.33333334
      - serializedVersion: 3
        time: 0.20000029
        value: -60.000027
        inSlope: -98.83644
        outSlope: -98.80735
        tangentMode: 0
        weightedMode: 0
        inWeight: 0.33333334
        outWeight: 0.33333334
      - serializedVersion: 3
        time: 0.3666668
        value: -80.45271
        inSlope: -119.57778
        outSlope: -119.80478
        tangentMode: 0
        weightedMode: 0
        inWeight: 0.33333334
        outWeight: 0.33333334
      - serializedVersion: 3
        time: 0.50000024
        value: -90
        inSlope: 10.993185
        outSlope: 10.975339
        tangentMode: 0
        weightedMode: 0
        inWeight: 0.33333334
        outWeight: 0.33333334
      - serializedVersion: 3
        time: 0.7000003
        value: -90
        inSlope: 0
        outSlope: 0
        tangentMode: 0
        weightedMode: 0
        inWeight: 0.33333334
        outWeight: 0.33333334
      - serializedVersion: 3
        time: 1
        value: -89.98021
        inSlope: -0.19790669
        outSlope: -0.19790669
        tangentMode: 0
        weightedMode: 0
        inWeight: 0.33333334
        outWeight: 0.33333334
      m_PreInfinity: 2
      m_PostInfinity: 2
      m_RotationOrder: 4
    attribute: localEulerAngles.x
    path: golem_root_jnt/golem_COG_jnt_C/golem_spine_jnt_C/golem_upArm_jnt_R
    classID: 4
    script: {fileID: 0}
  - curve:
      serializedVersion: 2
      m_Curve:
      - serializedVersion: 3
        time: 0
        value: -4.9369984
        inSlope: 18.287468
        outSlope: 18.287468
        tangentMode: 0
        weightedMode: 0
        inWeight: 0.33333334
        outWeight: 0.33333334
      - serializedVersion: 3
        time: 0.06666684
        value: -1.3495774
        inSlope: 96.56607
        outSlope: 98.08549
        tangentMode: 0
        weightedMode: 0
        inWeight: 0.33333334
        outWeight: 0.33333334
      - serializedVersion: 3
        time: 0.20000029
        value: 9.761514
        inSlope: 11.06715
        outSlope: 11.349557
        tangentMode: 0
        weightedMode: 0
        inWeight: 0.33333334
        outWeight: 0.33333334
      - serializedVersion: 3
        time: 0.3666668
        value: 1.0166014
        inSlope: -159.90176
        outSlope: -121.25532
        tangentMode: 0
        weightedMode: 0
        inWeight: 0.33333334
        outWeight: 0.33333334
      - serializedVersion: 3
        time: 0.50000024
        value: -95.23848
        inSlope: -2020.3964
        outSlope: -1347.2732
        tangentMode: 0
        weightedMode: 0
        inWeight: 0.33333334
        outWeight: 0.33333334
      - serializedVersion: 3
        time: 0.7000003
        value: -90.23847
        inSlope: 2.983474
        outSlope: 2.983554
        tangentMode: 0
        weightedMode: 0
        inWeight: 0.33333334
        outWeight: 0.33333334
      - serializedVersion: 3
        time: 1
        value: -94.86436
        inSlope: -1.0409555
        outSlope: -1.0409555
        tangentMode: 0
        weightedMode: 0
        inWeight: 0.33333334
        outWeight: 0.33333334
      m_PreInfinity: 2
      m_PostInfinity: 2
      m_RotationOrder: 4
    attribute: localEulerAngles.y
    path: golem_root_jnt/golem_COG_jnt_C/golem_spine_jnt_C/golem_upArm_jnt_R
    classID: 4
    script: {fileID: 0}
  - curve:
      serializedVersion: 2
      m_Curve:
      - serializedVersion: 3
        time: 0
        value: -90.02168
        inSlope: -0.8843971
        outSlope: -0.8843971
        tangentMode: 0
        weightedMode: 0
        inWeight: 0.33333334
        outWeight: 0.33333334
      - serializedVersion: 3
        time: 0.06666684
        value: -89.999985
        inSlope: -1.0258456
        outSlope: -3.0528233
        tangentMode: 0
        weightedMode: 0
        inWeight: 0.33333334
        outWeight: 0.33333334
      - serializedVersion: 3
        time: 0.20000029
        value: -89.99999
        inSlope: -2.3950176
        outSlope: -2.6990688
        tangentMode: 0
        weightedMode: 0
        inWeight: 0.33333334
        outWeight: 0.33333334
      - serializedVersion: 3
        time: 0.3666668
        value: -89.99995
        inSlope: 87.52184
        outSlope: 48.7923
        tangentMode: 0
        weightedMode: 0
        inWeight: 0.33333334
        outWeight: 0.33333334
      - serializedVersion: 3
        time: 0.50000024
        value: 0
        inSlope: 2018.2341
        outSlope: 1345.1135
        tangentMode: 0
        weightedMode: 0
        inWeight: 0.33333334
        outWeight: 0.33333334
      - serializedVersion: 3
        time: 0.7000003
        value: 0
        inSlope: 0
        outSlope: 0
        tangentMode: 0
        weightedMode: 0
        inWeight: 0.33333334
        outWeight: 0.33333334
      - serializedVersion: 3
        time: 1
        value: 0
        inSlope: 0
        outSlope: 0
        tangentMode: 0
        weightedMode: 0
        inWeight: 0.33333334
        outWeight: 0.33333334
      m_PreInfinity: 2
      m_PostInfinity: 2
      m_RotationOrder: 4
    attribute: localEulerAngles.z
    path: golem_root_jnt/golem_COG_jnt_C/golem_spine_jnt_C/golem_upArm_jnt_R
    classID: 4
    script: {fileID: 0}
  m_HasGenericRootTransform: 0
  m_HasMotionFloatCurves: 0
  m_Events: []
